SYMBOL 0.99876225 613 303 790 486
CMND_CORNER 0.97911114 1105 1093 1209 1209
CMND_CORNER 0.965385 75 331 181 457
CMND_CORNER 0.91014844 734 89 840 222
CMND_CORNER 0.59874874 467 1328 579 1457
CMND_CORNER 0.027536439 103 341 201 459
CMND_CORNER 0.018779851 1134 1094 1252 1215
CMND_CORNER 0.012056397 446 1384 561 1522
CCCD_CORNER 0.011581926 75 331 181 457
CCCD_CORNER 0.011039362 1105 1093 1209 1209
