CMND_CORNER 0.9818749 124 1080 233 1209
CMND_CORNER 0.9336614 478 75 585 191
SYMBOL 0.9276514 875 397 1058 578
CMND_CORNER 0.8485874 773 1306 880 1432
CMND_CORNER 0.7049838 1138 287 1250 423
CMND_CORNER 0.015182817 760 1283 863 1401
CMND_CORNER 0.014159913 79 1082 203 1218
