SYMBOL 0.9990011 1107 571 1293 744
CMND_CORNER 0.98230803 147 850 283 985
CMND_CORNER 0.9751091 1393 561 1529 691
CMND_CORNER 0.9404753 882 84 1012 215
CMND_CORNER 0.29131755 637 1323 769 1459
CCCD_CORNER 0.030272592 1393 561 1529 691
CMND_CORNER 0.028528327 1415 567 1570 706
CMND_CORNER 0.01691458 886 118 1016 239
CMND_CORNER 0.013094031 92 846 243 989
