SYMBOL 0.93910754 1785 2642 2338 3198
CCCD_CORNER 0.7408939 90 1216 275 1577
CCCD_CORNER 0.7399654 3238 1939 3445 2288
CCCD_CORNER 0.5515425 1261 77 1597 268
CCCD_CORNER 0.44232234 1996 3241 2326 3444
CCCD_CORNER 0.353643 1256 115 1596 366
CCCD_CORNER 0.08173575 1251 315 1567 567
CCCD_CORNER 0.029400397 2076 3218 2418 3430
CCCD_CORNER 0.024001159 1355 117 1649 374
CCCD_CORNER 0.019284949 1343 64 1649 277
CCCD_CORNER 0.012468562 1205 443 1565 722
