SYMBOL 0.99261624 950 2655 1499 3203
CCCD_CORNER 0.75860316 68 482 217 828
CCCD_CORNER 0.58946574 1755 113 2007 330
CCCD_CORNER 0.4980209 971 3222 1242 3427
CCCD_CORNER 0.4364637 2650 2619 2821 2972
CCCD_CORNER 0.43403307 911 3200 1169 3422
CCCD_CORNER 0.24170724 1691 153 1924 384
CCCD_CORNER 0.029853387 1697 78 1941 273
CMND_CORNER 0.024298893 68 482 217 828
CCCD_CORNER 0.010406581 1621 299 1907 533
