CCCD_CORNER 0.98300916 279 412 355 473
SYMBOL 0.98099846 331 482 447 600
CCCD_CORNER 0.8536844 851 631 930 694
CCCD_CORNER 0.7802497 712 1005 792 1072
CCCD_CORNER 0.64662284 146 778 217 843
CCCD_CORNER 0.014772105 460 984 537 1066
CCCD_CORNER 0.014163688 405 977 477 1062
SYMBOL 0.011646279 81 147 1003 1435
