SYMBOL 0.96458733 689 84 811 203
CCCD_CORNER 0.8849569 799 23 842 76
CCCD_CORNER 0.8790693 405 21 451 68
CCCD_CORNER 0.574017 786 611 827 670
CCCD_CORNER 0.4951934 401 611 446 671
CCCD_CORNER 0.45061424 397 628 451 693
CCCD_CORNER 0.3061175 782 622 825 683
CCCD_CORNER 0.26635006 797 610 838 671
CCCD_CORNER 0.23238522 787 21 830 75
CCCD_CORNER 0.1338792 375 608 426 672
CCCD_CORNER 0.11506085 793 622 839 683
CCCD_CORNER 0.09403079 373 629 432 696
CCCD_CORNER 0.045046497 804 6 850 64
SYMBOL 0.012116968 93 74 1144 719
SYMBOL 0.011752872 705 63 830 191
CCCD_CORNER 0.010862247 285 600 354 668
