SYMBOL 0.99117416 961 575 1179 795
CCCD_CORNER 0.5185402 33 753 114 818
CCCD_CORNER 0.3899375 1186 21 1258 78
CCCD_CORNER 0.37186268 1199 5 1266 70
CCCD_CORNER 0.30125067 1184 777 1263 831
CCCD_CORNER 0.2987204 37 22 117 80
CCCD_CORNER 0.2785483 1174 770 1245 816
CCCD_CORNER 0.26661986 9 3 100 65
CCCD_CORNER 0.1361657 34 2 115 70
CCCD_CORNER 0.13041553 16 764 102 835
CCCD_CORNER 0.051066823 1172 29 1245 82
CCCD_CORNER 0.018795418 1175 7 1246 67
