CMND_CORNER 0.95739424 1128 737 1231 805
CMND_CORNER 0.8193917 134 142 245 212
CMND_CORNER 0.48356828 235 721 327 782
CMND_CORNER 0.47989643 1066 88 1184 169
CMND_CORNER 0.45339718 1120 91 1232 167
CMND_CORNER 0.2726284 211 734 304 798
SYMBOL 0.2641145 925 558 1091 705
CMND_CORNER 0.08757834 1146 128 1238 199
CMND_CORNER 0.084865384 1169 134 1271 218
CMND_CORNER 0.05749535 1124 723 1228 787
CMND_CORNER 0.043778747 1124 45 1240 137
CMND_CORNER 0.036484707 1169 81 1275 168
CMND_CORNER 0.030008761 1183 34 1276 120
CMND_CORNER 0.029948741 1178 169 1261 246
CMND_CORNER 0.023121057 122 103 233 184
CMND_CORNER 0.0134469215 1017 84 1142 164
CMND_CORNER 0.011618606 1161 171 1243 236
