SYMBOL 0.9969578 387 322 555 474
CMND_CORNER 0.96916664 1027 1056 1141 1147
CMND_CORNER 0.8248092 1144 486 1247 578
CMND_CORNER 0.7731494 62 681 167 798
CMND_CORNER 0.66063416 285 156 406 249
CMND_CORNER 0.23402092 72 738 177 855
CMND_CORNER 0.077798046 125 809 228 912
CMND_CORNER 0.056805357 77 800 183 918
CMND_CORNER 0.052223895 60 644 162 759
CMND_CORNER 0.03233213 1028 1089 1153 1190
CMND_CORNER 0.013847204 123 763 215 869
CMND_CORNER 0.012077918 15 678 127 806
