SYMBOL 0.99593157 779 501 950 668
CMND_CORNER 0.98468614 71 1103 172 1228
CMND_CORNER 0.8850339 667 1330 760 1454
CMND_CORNER 0.73573244 1019 417 1117 532
CMND_CORNER 0.63056654 425 194 527 310
CMND_CORNER 0.049630255 1000 427 1101 546
CCCD_CORNER 0.02986413 71 1103 172 1228
CMND_CORNER 0.01882127 99 1102 193 1225
CCCD_CORNER 0.013091087 425 194 527 310
CMND_CORNER 0.011170933 672 1306 759 1419
