CMND_CORNER 0.9286637 174 807 274 877
CMND_CORNER 0.9158761 186 183 287 245
CMND_CORNER 0.88120914 1151 195 1239 261
CMND_CORNER 0.58306575 1138 818 1234 887
SYMBOL 0.32486582 322 276 481 439
CMND_CORNER 0.12940411 179 164 283 230
CMND_CORNER 0.11749583 1166 190 1278 259
CMND_CORNER 0.039100215 144 811 249 881
CMND_CORNER 0.022686308 165 827 270 906
CMND_CORNER 0.022206329 132 830 243 908
CMND_CORNER 0.021716846 1166 834 1271 910
CMND_CORNER 0.016741352 1175 158 1275 233
CCCD_CORNER 0.016645258 186 183 287 245
CMND_CORNER 0.010862063 49 841 174 929
