SYMBOL 0.9989085 630 459 797 621
CMND_CORNER 0.9816534 1316 957 1434 1080
CMND_CORNER 0.93353766 637 262 751 376
CMND_CORNER 0.6643663 863 1398 980 1519
CMND_CORNER 0.53351295 170 683 289 800
CMND_CORNER 0.050379492 198 701 309 810
CCCD_CORNER 0.01323235 1316 957 1434 1080
