SYMBOL 0.9990287 3124 1988 3694 2566
CMND_CORNER 0.96361184 1600 4329 2007 4733
CMND_CORNER 0.95700663 3972 2001 4378 2428
CMND_CORNER 0.9163549 146 2822 462 3270
CMND_CORNER 0.5909807 2446 355 2854 772
CMND_CORNER 0.045387372 1584 4431 1996 4845
CMND_CORNER 0.0140510695 2509 261 2931 698
