SYMBOL 0.9860569 1661 982 2224 1553
CMND_CORNER 0.9470696 124 393 322 772
CMND_CORNER 0.8262653 2310 523 2534 860
CMND_CORNER 0.65284073 114 3799 341 4041
CMND_CORNER 0.58402294 2271 3783 2491 4040
CMND_CORNER 0.06688648 2369 457 2595 810
CMND_CORNER 0.032032605 119 509 322 832
CMND_CORNER 0.0113172 2358 3770 2600 4043
