CMND_CORNER 0.9719024 135 493 193 533
CMND_CORNER 0.9577057 704 122 767 162
CMND_CORNER 0.94377595 689 490 754 530
SYMBOL 0.9437307 572 379 668 479
CMND_CORNER 0.8680115 117 125 177 165
CMND_CORNER 0.2191779 120 135 181 176
CMND_CORNER 0.04117049 699 136 762 177
CMND_CORNER 0.039471958 676 487 740 527
CMND_CORNER 0.029602194 95 119 159 159
CCCD_CORNER 0.013995321 689 490 754 530
CMND_CORNER 0.012670961 727 114 795 156
