SYMBOL 0.99341387 567 308 665 402
CMND_CORNER 0.95501214 698 254 753 324
CMND_CORNER 0.9256301 354 118 409 189
CMND_CORNER 0.904619 157 668 216 742
CMND_CORNER 0.84629977 507 777 564 848
CCCD_CORNER 0.03170638 507 777 564 848
CCCD_CORNER 0.023182375 698 254 753 324
CCCD_CORNER 0.022214985 354 118 409 189
CCCD_CORNER 0.016939465 157 668 216 742
CMND_CORNER 0.011637583 681 258 735 323
CMND_CORNER 0.010359159 178 662 239 736
