SYMBOL 0.80965805 656 119 894 347
CMND_CORNER 0.6357217 385 1412 520 1496
CCCD_CORNER 0.52848285 35 236 122 393
CCCD_CORNER 0.39630833 795 38 915 116
CCCD_CORNER 0.37743697 1229 1133 1304 1286
CCCD_CORNER 0.1102287 764 49 883 135
CMND_CORNER 0.08676892 37 251 126 401
CCCD_CORNER 0.07913527 385 1412 520 1496
