SYMBOL 0.99667513 750 421 884 558
CCCD_CORNER 0.9916368 893 364 968 458
CCCD_CORNER 0.98975384 190 916 263 1008
CCCD_CORNER 0.76030827 445 160 523 262
CCCD_CORNER 0.63184327 630 1045 702 1134
CCCD_CORNER 0.029640615 640 1032 712 1120
CCCD_CORNER 0.0122331595 210 917 284 1006
