CCCD_CORNER 0.98546255 938 608 1013 658
CCCD_CORNER 0.7634317 910 155 989 203
CCCD_CORNER 0.73909014 129 626 223 679
SYMBOL 0.5382016 257 169 402 316
CCCD_CORNER 0.49998963 171 141 257 189
SYMBOL 0.030394657 529 127 857 421
CCCD_CORNER 0.02831068 153 131 242 183
SYMBOL 0.015321102 435 161 867 370
SYMBOL 0.013042821 94 74 1155 755
