CMND_CORNER 0.96061236 1914 1788 2098 1980
CMND_CORNER 0.8476102 1242 67 1442 291
SYMBOL 0.8214533 1096 457 1401 762
CMND_CORNER 0.7528767 223 524 407 739
CMND_CORNER 0.70885503 880 2090 1023 2258
CMND_CORNER 0.107218385 1946 1784 2163 1987
CMND_CORNER 0.053731285 1222 8 1436 243
CCCD_CORNER 0.0367862 880 365 1048 472
CCCD_CORNER 0.025723223 1242 67 1442 291
CMND_CORNER 0.023499904 1251 162 1426 373
CMND_CORNER 0.022162491 1305 63 1528 290
CMND_CORNER 0.015337361 787 2135 955 2318
CCCD_CORNER 0.013637894 977 370 1209 506
CMND_CORNER 0.013110791 1168 70 1380 299
CMND_CORNER 0.010761607 1905 1847 2097 2041
