CMND_CORNER 0.86533934 1665 1477 1850 1574
CMND_CORNER 0.7003579 1733 378 1861 490
CMND_CORNER 0.62795836 57 1516 205 1627
CMND_CORNER 0.42195058 50 414 176 518
CMND_CORNER 0.2976586 58 1544 201 1662
CMND_CORNER 0.2497411 1754 368 1910 483
SYMBOL 0.21531197 271 514 554 865
SYMBOL 0.05244647 119 492 532 816
CMND_CORNER 0.052249912 1678 1436 1843 1521
CMND_CORNER 0.04696443 27 456 138 549
CMND_CORNER 0.044048008 60 462 217 555
CCCD_CORNER 0.019292206 50 414 176 518
CMND_CORNER 0.018945426 1758 313 1909 452
CMND_CORNER 0.01666751 51 325 180 436
CMND_CORNER 0.0150583275 1668 1553 1864 1665
CCCD_CORNER 0.010822047 85 799 202 948
