CMND_CORNER 0.99076754 279 275 300 312
CMND_CORNER 0.9815072 173 12 202 36
CMND_CORNER 0.93109167 100 340 132 367
SYMBOL 0.86550933 141 48 192 99
CMND_CORNER 0.4764656 9 60 28 101
CMND_CORNER 0.031517494 173 5 203 30
