CCCD_CORNER 0.98668057 935 958 1030 1073
SYMBOL 0.9715386 517 200 690 371
CCCD_CORNER 0.8568641 606 58 697 167
CCCD_CORNER 0.6904676 356 1177 444 1279
CCCD_CORNER 0.68863124 43 258 130 367
CCCD_CORNER 0.03541381 372 1156 465 1267
