CCCD_CORNER 0.9841711 376 938 487 1029
SYMBOL 0.94316083 1076 516 1247 686
CCCD_CORNER 0.8620627 1082 49 1188 131
CCCD_CORNER 0.85547024 1280 605 1390 698
CCCD_CORNER 0.4431651 181 355 287 445
CCCD_CORNER 0.09021013 162 369 280 461
