SYMBOL 0.9929622 337 176 449 284
CMND_CORNER 0.98175883 33 191 90 268
CMND_CORNER 0.82239634 628 637 694 715
CMND_CORNER 0.7506454 413 53 481 130
CMND_CORNER 0.47058085 268 785 326 854
CMND_CORNER 0.33758473 259 796 316 868
CMND_CORNER 0.040839866 244 806 303 878
CMND_CORNER 0.03089336 644 648 715 728
CMND_CORNER 0.016026177 244 783 301 851
CMND_CORNER 0.010609659 397 65 469 141
