SYMBOL 0.94258165 325 193 433 300
CMND_CORNER 0.88157153 40 345 112 424
CMND_CORNER 0.8103835 333 68 410 143
CMND_CORNER 0.55990666 774 492 857 574
CMND_CORNER 0.28112167 506 785 578 855
CMND_CORNER 0.1832067 501 799 578 873
CMND_CORNER 0.027674992 789 489 878 568
