SYMBOL 0.9372934 331 395 462 524
CCCD_CORNER 0.899121 290 321 370 391
CCCD_CORNER 0.8666629 915 557 1001 615
CCCD_CORNER 0.8203554 149 719 224 786
CCCD_CORNER 0.14473681 760 938 833 997
CCCD_CORNER 0.14389835 154 734 228 800
CCCD_CORNER 0.072301045 760 975 843 1050
CCCD_CORNER 0.024989057 789 927 875 1003
CCCD_CORNER 0.017063733 126 743 214 817
CCCD_CORNER 0.016807625 315 321 396 390
CCCD_CORNER 0.01250669 897 557 973 615
SYMBOL 0.011016994 81 146 1001 1431
CCCD_CORNER 0.010071657 788 983 878 1068
