SYMBOL 0.99513334 1332 696 1873 1216
CMND_CORNER 0.9951115 3563 2291 3880 2665
CMND_CORNER 0.98925203 1367 147 1727 458
CMND_CORNER 0.94422305 2113 3637 2501 3910
CMND_CORNER 0.9380129 120 1474 377 1851
