CCCD_CORNER 0.99367225 1066 356 1162 432
SYMBOL 0.9936532 361 168 519 305
CCCD_CORNER 0.9936045 303 88 409 166
CCCD_CORNER 0.85908854 955 870 1061 957
CCCD_CORNER 0.6869433 47 541 144 620
CCCD_CORNER 0.04585022 942 853 1051 942
SYMBOL 0.017476996 170 471 450 641
