CCCD_CORNER 0.99259925 849 138 952 238
CCCD_CORNER 0.99215335 619 1164 723 1261
CCCD_CORNER 0.9914049 1233 550 1337 658
CCCD_CORNER 0.9261201 201 811 304 913
SYMBOL 0.6814196 1049 557 1210 717
CCCD_CORNER 0.010109322 622 1138 727 1233
