CCCD_CORNER 0.9897316 1178 1574 1286 1688
CCCD_CORNER 0.964835 562 864 673 979
CCCD_CORNER 0.90290034 1599 1179 1709 1298
CCCD_CORNER 0.9007481 1007 490 1114 594
SYMBOL 0.80615485 1018 638 1195 795
SYMBOL 0.16696483 1020 609 1171 752
CCCD_CORNER 0.018773094 536 866 648 986
