CCCD_CORNER 0.9880924 537 609 652 707
CCCD_CORNER 0.9837187 282 1149 396 1249
SYMBOL 0.9835458 597 719 767 885
CCCD_CORNER 0.9804498 1136 1514 1242 1607
CCCD_CORNER 0.9463782 1364 983 1477 1078
SYMBOL 0.010177259 129 237 1596 2295
