CCCD_CORNER 0.9787315 1020 770 1104 839
CCCD_CORNER 0.92297727 114 714 198 779
SYMBOL 0.8346567 807 1205 973 1371
CCCD_CORNER 0.7661673 976 1356 1069 1426
CCCD_CORNER 0.5763836 88 1279 172 1344
CCCD_CORNER 0.055181455 111 736 195 798
CCCD_CORNER 0.012950824 992 769 1074 833
CCCD_CORNER 0.012471316 70 1260 160 1334
CMND_CORNER 0.011551157 114 714 198 779
SYMBOL 0.0111631835 85 207 1033 2027
