SYMBOL 0.99691725 209 94 356 238
CMND_CORNER 0.7655556 911 260 965 342
CMND_CORNER 0.5965332 133 15 241 62
CCCD_CORNER 0.53759515 741 733 849 779
CMND_CORNER 0.23848313 23 474 78 546
CCCD_CORNER 0.09705847 25 462 85 536
