CMND_CORNER 0.7977278 904 333 962 436
CMND_CORNER 0.6929496 25 546 84 655
CMND_CORNER 0.6726835 326 910 426 967
CMND_CORNER 0.62722844 562 26 648 85
SYMBOL 0.2620737 723 332 871 472
CCCD_CORNER 0.024962308 904 333 962 436
CCCD_CORNER 0.01435274 25 546 84 655
CCCD_CORNER 0.014239289 563 22 644 74
