SYMBOL 0.99828774 372 106 517 252
CMND_CORNER 0.7633089 735 749 781 850
CMND_CORNER 0.7467886 18 138 59 232
CMND_CORNER 0.37599206 245 902 333 960
CMND_CORNER 0.33024582 461 22 544 78
CCCD_CORNER 0.03852058 245 902 333 960
CCCD_CORNER 0.038222354 70 367 135 425
CCCD_CORNER 0.023455404 464 26 540 81
