SYMBOL 0.9986083 729 373 880 519
CMND_CORNER 0.5881276 131 733 229 782
CMND_CORNER 0.3440508 901 467 961 550
CMND_CORNER 0.30807114 21 257 78 338
CMND_CORNER 0.30763978 756 15 833 61
CCCD_CORNER 0.20535968 751 21 826 70
CMND_CORNER 0.01630455 740 15 808 62
CCCD_CORNER 0.015340955 131 733 229 782
CCCD_CORNER 0.010415099 24 250 77 332
