SYMBOL 0.9981211 141 241 352 446
CMND_CORNER 0.60890067 1159 134 1244 215
CMND_CORNER 0.43390885 33 910 123 954
CMND_CORNER 0.41848654 1167 871 1242 930
CMND_CORNER 0.38424218 1174 129 1275 211
CMND_CORNER 0.36408934 6 121 99 208
CMND_CORNER 0.36171296 32 127 118 210
CMND_CORNER 0.19493768 1182 894 1271 954
CMND_CORNER 0.14980653 1166 886 1241 949
CMND_CORNER 0.14415453 8 923 107 956
CMND_CORNER 0.106491 4 97 89 189
CMND_CORNER 0.06351932 40 883 130 933
CMND_CORNER 0.036740575 1183 99 1273 190
CMND_CORNER 0.034316882 32 100 117 190
