CMND_CORNER 0.97323036 699 1353 813 1475
CMND_CORNER 0.97090966 1121 232 1236 378
CMND_CORNER 0.92931855 35 1103 118 1252
SYMBOL 0.8874076 827 342 1038 545
CMND_CORNER 0.760587 381 46 495 135
CMND_CORNER 0.039552607 1145 223 1264 369
CMND_CORNER 0.03813518 359 25 472 120
