CMND_CORNER 0.98284435 1358 526 1475 636
CMND_CORNER 0.9464949 236 104 379 217
CMND_CORNER 0.93324125 1104 1216 1248 1300
CMND_CORNER 0.9044693 45 833 140 952
SYMBOL 0.6855408 339 301 547 510
CMND_CORNER 0.025114322 44 865 142 983
