SYMBOL 0.99099123 701 476 819 591
CMND_CORNER 0.98957574 49 691 134 783
CMND_CORNER 0.973169 875 470 957 551
CMND_CORNER 0.96918184 400 957 484 1040
CMND_CORNER 0.37079087 555 128 640 217
CMND_CORNER 0.013400165 398 983 489 1071
CCCD_CORNER 0.011860332 400 957 484 1040
CCCD_CORNER 0.011607331 875 470 957 551
