SYMBOL 0.9965145 91 26 210 134
CCCD_CORNER 0.81931835 659 421 736 463
CCCD_CORNER 0.8021183 641 23 707 65
CCCD_CORNER 0.78391606 22 397 65 441
CCCD_CORNER 0.78089947 31 13 89 42
CCCD_CORNER 0.13376741 662 431 743 475
CCCD_CORNER 0.03515024 642 418 715 460
CCCD_CORNER 0.017510386 651 30 720 74
CCCD_CORNER 0.012203154 17 407 58 449
CCCD_CORNER 0.010771542 692 441 761 475
