SYMBOL 0.9969099 340 91 451 208
CCCD_CORNER 0.9767715 17 662 55 728
CCCD_CORNER 0.837657 433 30 461 89
CCCD_CORNER 0.761029 409 639 452 711
CCCD_CORNER 0.5840764 34 23 74 63
CCCD_CORNER 0.029384978 27 18 64 59
CCCD_CORNER 0.02356207 402 646 444 719
CCCD_CORNER 0.011102564 10 14 38 50
