CCCD_CORNER 0.98720306 195 16 252 55
CCCD_CORNER 0.98360187 519 319 555 375
CCCD_CORNER 0.89678687 325 519 379 556
CCCD_CORNER 0.84852755 15 204 51 257
SYMBOL 0.60482097 197 62 280 151
CMND_CORNER 0.017416762 325 519 379 556
