SYMBOL 0.99448735 697 383 776 470
CMND_CORNER 0.9748062 202 549 269 612
CMND_CORNER 0.9674723 806 380 865 443
CMND_CORNER 0.79145974 605 118 669 189
CMND_CORNER 0.6602657 463 746 526 806
CCCD_CORNER 0.09713907 806 380 865 443
CCCD_CORNER 0.047372658 202 549 269 612
CCCD_CORNER 0.024187122 605 118 669 189
CCCD_CORNER 0.01700018 463 746 526 806
CMND_CORNER 0.016756248 177 546 249 611
