CMND_CORNER 0.97409815 84 88 117 147
CMND_CORNER 0.9512219 418 632 450 687
SYMBOL 0.89665735 318 195 402 284
CMND_CORNER 0.8814336 405 126 438 180
CMND_CORNER 0.6683727 99 666 134 733
CMND_CORNER 0.053614605 411 129 448 184
CMND_CORNER 0.033235393 409 629 441 681
CCCD_CORNER 0.026112298 418 632 450 687
CMND_CORNER 0.020188842 85 697 123 774
CCCD_CORNER 0.018485615 84 88 117 147
CMND_CORNER 0.018289082 412 112 448 168
CMND_CORNER 0.013190315 421 657 456 716
CMND_CORNER 0.01181523 83 60 114 123
SYMBOL 0.010913574 466 875 542 917
