SYMBOL 0.9951089 1451 589 1952 1097
CCCD_CORNER 0.9898717 3690 1245 4021 1512
CCCD_CORNER 0.9894461 1238 294 1566 564
CCCD_CORNER 0.9135921 617 1869 930 2122
CCCD_CORNER 0.8732559 3099 2769 3408 3009
