SYMBOL 0.9922502 886 244 1382 728
CCCD_CORNER 0.9871221 565 106 848 288
CCCD_CORNER 0.83753693 3201 147 3482 319
CCCD_CORNER 0.71793646 3172 1785 3443 1956
CCCD_CORNER 0.58960336 535 1798 826 1952
CCCD_CORNER 0.035045337 553 1755 832 1914
CCCD_CORNER 0.01613995 3144 1744 3403 1918
CCCD_CORNER 0.015524215 3129 181 3404 342
SYMBOL 0.013357013 1773 0 2803 982
SYMBOL 0.0103465775 299 253 3694 2337
