CCCD_CORNER 0.9796047 744 308 832 394
CCCD_CORNER 0.96972793 1042 602 1116 676
SYMBOL 0.9438643 391 708 511 839
CCCD_CORNER 0.8942216 293 746 373 829
CCCD_CORNER 0.40550005 545 1040 629 1115
CCCD_CORNER 0.053746425 687 919 755 978
CCCD_CORNER 0.01649585 244 747 331 831
SYMBOL 0.012283262 148 0 1414 754
CCCD_CORNER 0.011986105 721 898 795 967
SYMBOL 0.0110459495 428 739 1115 1399
CCCD_CORNER 0.010023446 736 329 825 416
