CCCD_CORNER 0.9865497 732 1036 807 1112
CCCD_CORNER 0.98505855 585 284 661 366
CCCD_CORNER 0.9734489 1021 749 1098 830
SYMBOL 0.8239201 586 390 703 507
CCCD_CORNER 0.57627493 292 565 365 640
CCCD_CORNER 0.013984816 247 576 333 664
CCCD_CORNER 0.012627173 998 746 1075 824
