CCCD_CORNER 0.9942987 173 1270 522 1599
SYMBOL 0.9594737 3229 1848 3837 2454
CCCD_CORNER 0.9356567 827 3250 1212 3488
CCCD_CORNER 0.8397283 3963 2157 4332 2472
CCCD_CORNER 0.6865665 3269 174 3661 473
