CCCD_CORNER 0.99551636 4093 2569 4423 2961
SYMBOL 0.9938605 1801 726 2394 1348
CCCD_CORNER 0.97815144 2631 4057 3030 4401
CCCD_CORNER 0.9738027 1780 236 2167 607
CCCD_CORNER 0.62692976 254 1692 660 2095
