SYMBOL 0.9988967 879 622 1052 798
CMND_CORNER 0.9845227 45 836 129 913
CMND_CORNER 0.68132323 1118 122 1219 197
CMND_CORNER 0.57983184 40 124 111 194
CMND_CORNER 0.48482496 1124 104 1226 182
CMND_CORNER 0.45432392 1096 835 1208 910
CMND_CORNER 0.12284302 1082 819 1192 892
CMND_CORNER 0.0415873 35 108 100 178
CCCD_CORNER 0.014737203 45 836 129 913
