CMND_CORNER 0.9925311 1187 1109 1286 1245
CMND_CORNER 0.981822 128 308 234 435
CMND_CORNER 0.94753575 522 1371 630 1483
SYMBOL 0.9467372 684 292 860 470
CMND_CORNER 0.7612967 809 89 912 211
CMND_CORNER 0.017593252 523 1401 629 1513
