SYMBOL 0.9987085 624 222 797 402
CMND_CORNER 0.9089867 838 1146 914 1240
CMND_CORNER 0.8549422 123 58 194 158
CMND_CORNER 0.6919031 124 1164 193 1247
CMND_CORNER 0.5756788 833 70 905 182
CMND_CORNER 0.08103588 818 88 889 195
CMND_CORNER 0.078905664 842 1163 917 1269
CMND_CORNER 0.07826447 108 1175 179 1266
CMND_CORNER 0.015691103 127 94 198 186
CMND_CORNER 0.012488488 819 1141 892 1240
