CCCD_CORNER 0.9719151 702 371 759 432
CMND_CORNER 0.9636861 124 588 195 638
CMND_CORNER 0.9193365 583 27 649 72
CMND_CORNER 0.66550606 25 209 78 271
SYMBOL 0.50982225 572 306 685 414
CMND_CORNER 0.04079694 702 371 759 432
CMND_CORNER 0.012181549 595 9 670 53
