CMND_CORNER 0.96396637 151 287 477 516
SYMBOL 0.9119402 607 619 1177 1186
CMND_CORNER 0.6855914 3462 2468 3790 2705
CMND_CORNER 0.59485614 3457 401 3759 615
CMND_CORNER 0.49971595 131 2473 429 2700
CMND_CORNER 0.08000284 31 2509 346 2759
CMND_CORNER 0.04099527 141 177 455 442
CMND_CORNER 0.038625084 3538 2524 3894 2772
CMND_CORNER 0.034145012 3550 317 3895 555
CMND_CORNER 0.013290885 3598 147 3932 421
CMND_CORNER 0.012219517 3545 2462 3892 2709
