CCCD_CORNER 0.98966926 573 1552 741 1667
CCCD_CORNER 0.9890543 1557 590 1667 749
CCCD_CORNER 0.9820518 983 49 1148 158
CCCD_CORNER 0.91421634 46 969 151 1131
SYMBOL 0.657861 1284 594 1524 840
CMND_CORNER 0.0150551805 1557 590 1667 749
