SYMBOL 0.9950246 158 44 404 292
CCCD_CORNER 0.80686945 1379 27 1487 86
CCCD_CORNER 0.51958734 49 25 149 78
CCCD_CORNER 0.43899134 1393 837 1490 890
CCCD_CORNER 0.41520506 1384 822 1486 881
CCCD_CORNER 0.40684664 49 825 144 878
CCCD_CORNER 0.16182172 1403 844 1525 897
CCCD_CORNER 0.14456832 1386 7 1494 73
CCCD_CORNER 0.08963523 13 842 136 893
CCCD_CORNER 0.06677975 11 8 126 64
CCCD_CORNER 0.04903738 1406 3 1527 74
CCCD_CORNER 0.029628517 1401 819 1518 879
CCCD_CORNER 0.024166677 1402 22 1520 88
