SYMBOL 0.9961696 1135 602 1379 860
CCCD_CORNER 0.9717538 54 815 151 875
CCCD_CORNER 0.7558587 1386 24 1484 76
CCCD_CORNER 0.6695816 52 22 145 75
CCCD_CORNER 0.63500893 1390 826 1490 875
CCCD_CORNER 0.33231524 1398 839 1494 892
CCCD_CORNER 0.09263558 1408 843 1524 896
CCCD_CORNER 0.023511227 1409 15 1520 61
