SYMBOL 0.99695146 966 605 1186 818
CCCD_CORNER 0.99122494 46 787 150 856
CCCD_CORNER 0.9848942 44 41 145 117
CCCD_CORNER 0.5666126 1184 796 1268 878
CCCD_CORNER 0.54300815 1195 37 1263 114
CCCD_CORNER 0.17378588 1175 44 1244 113
CCCD_CORNER 0.016574591 51 773 151 839
