CCCD_CORNER 0.9907622 653 570 717 619
CCCD_CORNER 0.96997046 565 276 621 324
CCCD_CORNER 0.6606721 87 440 146 486
SYMBOL 0.6595772 547 530 641 620
CCCD_CORNER 0.6188996 198 727 259 775
CCCD_CORNER 0.014378747 184 718 252 767
CCCD_CORNER 0.0129829785 570 261 627 309
CCCD_CORNER 0.011374673 106 438 164 492
SYMBOL 0.010169615 61 111 751 1078
