SYMBOL 0.998018 449 112 587 246
CCCD_CORNER 0.9930254 573 34 626 106
CCCD_CORNER 0.99243015 571 791 624 867
CCCD_CORNER 0.87986135 79 791 128 864
CCCD_CORNER 0.8367886 89 27 143 87
CCCD_CORNER 0.010212771 76 7 134 78
