CCCD_CORNER 0.9862759 222 303 276 348
CCCD_CORNER 0.96472746 116 564 172 610
SYMBOL 0.959129 255 354 337 433
CCCD_CORNER 0.9562457 641 451 702 498
CCCD_CORNER 0.46920907 542 730 598 777
CCCD_CORNER 0.06141197 551 717 606 765
CCCD_CORNER 0.02434979 121 552 172 599
CMND_CORNER 0.011601129 222 303 276 348
