SYMBOL 0.9950553 68 339 150 423
CCCD_CORNER 0.99377716 22 319 66 352
CCCD_CORNER 0.78962797 459 312 504 346
CCCD_CORNER 0.73775417 20 590 58 625
CCCD_CORNER 0.71384835 468 605 509 637
CCCD_CORNER 0.032034542 469 592 509 624
SYMBOL 0.013861009 39 98 485 954
