SYMBOL 0.98988986 579 395 733 533
CCCD_CORNER 0.9805988 1137 823 1238 921
CCCD_CORNER 0.9289709 590 276 684 370
CCCD_CORNER 0.90308785 798 1209 901 1313
CCCD_CORNER 0.3700239 210 612 309 710
CCCD_CORNER 0.013616639 1109 818 1212 923
