SYMBOL 0.9771005 736 702 877 845
CCCD_CORNER 0.9330548 101 840 176 896
CCCD_CORNER 0.8869339 72 324 152 382
CCCD_CORNER 0.85686094 872 839 931 889
CCCD_CORNER 0.5121417 890 320 941 377
CCCD_CORNER 0.06599115 895 312 946 364
CCCD_CORNER 0.028591331 118 832 191 890
CCCD_CORNER 0.013918409 73 310 151 365
SYMBOL 0.011000029 71 123 867 1257
