CCCD_CORNER 0.9791389 13 74 40 108
CCCD_CORNER 0.97688645 185 19 213 53
CCCD_CORNER 0.97546345 120 359 149 389
SYMBOL 0.7697896 163 64 212 114
CCCD_CORNER 0.5816589 282 281 308 316
CCCD_CORNER 0.022632983 277 276 304 312
CMND_CORNER 0.014208071 13 74 40 108
