CCCD_CORNER 0.99459213 250 633 308 699
CCCD_CORNER 0.9365088 801 222 859 293
SYMBOL 0.9352276 685 268 792 376
CCCD_CORNER 0.8531846 595 752 655 822
CCCD_CORNER 0.75946087 461 82 518 147
CCCD_CORNER 0.061666213 463 65 527 133
