CMND_CORNER 0.865084 121 356 228 482
CMND_CORNER 0.7955311 733 121 833 240
CMND_CORNER 0.71315295 491 1298 586 1416
CMND_CORNER 0.6425045 1101 1077 1204 1195
SYMBOL 0.4293786 622 320 794 489
CMND_CORNER 0.040582232 70 360 194 484
CCCD_CORNER 0.03913307 491 1298 586 1416
CCCD_CORNER 0.03036362 121 356 228 482
CMND_CORNER 0.023321765 736 87 842 214
CMND_CORNER 0.021673454 62 325 179 451
