SYMBOL 0.99737996 227 228 399 404
CMND_CORNER 0.83365357 103 789 211 853
CMND_CORNER 0.6301693 1111 783 1214 853
CMND_CORNER 0.6028039 69 134 185 207
CMND_CORNER 0.37118986 1083 125 1187 197
CMND_CORNER 0.28092822 1108 770 1209 834
CMND_CORNER 0.24443875 1106 106 1212 183
CMND_CORNER 0.2066731 65 792 185 860
CMND_CORNER 0.09212116 107 777 209 834
CMND_CORNER 0.040369634 60 105 177 185
CMND_CORNER 0.039464865 1090 782 1188 850
CMND_CORNER 0.034946404 52 836 164 914
CMND_CORNER 0.032449633 71 776 179 834
CMND_CORNER 0.023451287 105 836 215 914
CCCD_CORNER 0.018687615 1111 783 1214 853
CCCD_CORNER 0.017198538 1108 770 1209 834
