SYMBOL 0.9959282 843 430 1020 596
CMND_CORNER 0.95796967 749 1289 848 1410
CMND_CORNER 0.8982101 136 1082 227 1199
CMND_CORNER 0.880379 470 120 566 243
CMND_CORNER 0.69549257 1088 328 1187 455
CMND_CORNER 0.08649486 469 87 568 211
CMND_CORNER 0.05461944 1071 344 1167 468
CMND_CORNER 0.045789752 750 1319 855 1443
CCCD_CORNER 0.044467565 136 1082 227 1199
CCCD_CORNER 0.028364884 470 120 566 243
CMND_CORNER 0.013763451 85 1101 183 1217
CMND_CORNER 0.011680749 433 72 533 214
CCCD_CORNER 0.011061176 749 1289 848 1410
