SYMBOL 0.99592674 971 624 1161 820
CCCD_CORNER 0.94445693 63 808 175 888
CCCD_CORNER 0.9247705 1163 102 1236 171
CCCD_CORNER 0.8515772 76 91 171 168
CCCD_CORNER 0.84546465 1165 805 1241 878
CCCD_CORNER 0.28665727 1178 802 1265 881
CCCD_CORNER 0.099179186 1172 100 1267 171
CCCD_CORNER 0.0441269 1163 123 1239 194
CCCD_CORNER 0.025912888 79 117 170 195
CCCD_CORNER 0.02210975 64 56 162 130
CCCD_CORNER 0.0120158335 1175 124 1268 192
