CCCD_CORNER 0.96176195 498 50 603 160
CCCD_CORNER 0.92579466 781 1316 890 1448
CCCD_CORNER 0.90377563 116 1076 219 1197
SYMBOL 0.8820605 944 353 1147 545
CCCD_CORNER 0.7510069 1161 266 1266 395
CCCD_CORNER 0.012957457 83 1080 186 1211
