SYMBOL 0.99697435 620 113 823 308
CCCD_CORNER 0.8998291 808 1098 886 1220
CCCD_CORNER 0.8513755 804 40 878 116
CCCD_CORNER 0.83036846 95 1105 170 1204
CCCD_CORNER 0.62297857 100 37 173 109
CCCD_CORNER 0.1585883 807 13 881 105
CCCD_CORNER 0.025819179 118 36 192 114
