SYMBOL 0.9616051 653 183 851 378
CCCD_CORNER 0.949811 756 40 863 152
CCCD_CORNER 0.88598126 474 1319 578 1439
CCCD_CORNER 0.46046305 81 248 187 374
CCCD_CORNER 0.32873476 1135 1057 1246 1187
CCCD_CORNER 0.18033147 94 266 201 391
CCCD_CORNER 0.012294444 432 1331 534 1452
