CCCD_CORNER 0.95967835 51 732 159 835
CCCD_CORNER 0.92153835 1076 1121 1205 1229
CCCD_CORNER 0.853856 1315 447 1446 559
CCCD_CORNER 0.7797501 264 68 393 174
SYMBOL 0.7478909 348 188 548 395
CCCD_CORNER 0.04878524 1085 1144 1214 1260
