CCCD_CORNER 0.99797803 1405 554 1527 686
CCCD_CORNER 0.99091655 907 67 1038 189
SYMBOL 0.9739662 1164 563 1371 760
CCCD_CORNER 0.78145504 614 1358 747 1490
CCCD_CORNER 0.5078341 119 861 244 982
CCCD_CORNER 0.06399737 93 844 223 968
