SYMBOL 0.99905735 652 268 767 384
CMND_CORNER 0.91843885 364 158 407 224
CMND_CORNER 0.9096419 758 837 806 910
CMND_CORNER 0.7653387 783 187 826 255
CMND_CORNER 0.43203115 327 829 377 904
CMND_CORNER 0.29458684 790 179 840 250
CMND_CORNER 0.08602229 368 172 409 241
CCCD_CORNER 0.057528988 758 837 806 910
CMND_CORNER 0.0562527 308 833 360 911
CCCD_CORNER 0.02296165 364 158 407 224
CMND_CORNER 0.01929568 752 821 797 891
CMND_CORNER 0.013750667 793 160 845 236
SYMBOL 0.010567955 94 96 1149 948
CCCD_CORNER 0.010531531 327 829 377 904
CMND_CORNER 0.010487568 311 816 367 892
