SYMBOL 0.9904739 671 577 790 693
CMND_CORNER 0.96600235 689 439 771 523
CMND_CORNER 0.9086058 360 736 440 816
CMND_CORNER 0.81075114 819 1220 897 1303
CMND_CORNER 0.7365745 1138 926 1217 1008
CCCD_CORNER 0.19354554 360 736 440 816
CMND_CORNER 0.1474858 1119 923 1197 1005
CCCD_CORNER 0.05494444 1138 926 1217 1008
CCCD_CORNER 0.030244362 819 1220 897 1303
CCCD_CORNER 0.027004179 689 439 771 523
CMND_CORNER 0.026390798 388 741 466 820
CMND_CORNER 0.015193315 685 469 765 552
