SYMBOL 0.99862754 574 654 692 766
CMND_CORNER 0.9642647 49 756 124 807
CMND_CORNER 0.92727685 738 360 802 407
CMND_CORNER 0.7515263 53 324 127 375
CMND_CORNER 0.56347805 708 791 774 845
CMND_CORNER 0.5246512 704 783 772 832
CMND_CORNER 0.1289143 71 329 138 381
CMND_CORNER 0.10304701 50 309 118 361
CCCD_CORNER 0.03876001 49 756 124 807
CCCD_CORNER 0.032844257 738 360 802 407
CMND_CORNER 0.022692155 71 748 143 804
CMND_CORNER 0.019218812 727 796 797 854
CCCD_CORNER 0.018066242 53 324 127 375
CMND_CORNER 0.0125460075 728 776 801 831
CMND_CORNER 0.01050105 72 307 136 360
SYMBOL 0.010475846 70 128 861 1265
