CCCD_CORNER 0.994941 391 710 449 774
CCCD_CORNER 0.9870645 599 140 660 213
CCCD_CORNER 0.97370493 243 23 299 84
CCCD_CORNER 0.8650345 49 585 105 657
SYMBOL 0.6620056 479 189 593 300
CCCD_CORNER 0.028367845 38 595 96 671
