CCCD_CORNER 0.9262074 22 376 67 404
CCCD_CORNER 0.8937589 433 359 470 387
CCCD_CORNER 0.7827484 10 120 36 149
SYMBOL 0.7627471 351 298 429 373
CCCD_CORNER 0.4552436 431 84 472 115
CCCD_CORNER 0.035387956 8 115 35 141
CCCD_CORNER 0.032108128 439 89 483 121
CCCD_CORNER 0.020589286 23 370 69 397
