SYMBOL 0.95950854 374 651 495 774
CMND_CORNER 0.82589465 105 962 197 1043
CMND_CORNER 0.72470987 811 1227 892 1301
CMND_CORNER 0.65358025 955 780 1038 852
CMND_CORNER 0.3161778 313 521 401 598
CMND_CORNER 0.22929291 942 789 1021 860
CMND_CORNER 0.21174881 81 968 186 1055
CMND_CORNER 0.094531134 300 536 393 609
CMND_CORNER 0.02902556 809 1259 901 1348
CMND_CORNER 0.018418675 942 764 1018 841
CCCD_CORNER 0.016949091 292 46 584 234
CCCD_CORNER 0.012580428 955 780 1038 852
CMND_CORNER 0.011561936 1016 731 1124 830
CCCD_CORNER 0.010535182 811 1227 892 1301
