SYMBOL 0.99806887 317 70 445 193
CCCD_CORNER 0.93634623 434 686 469 736
CCCD_CORNER 0.86887646 13 693 42 737
CCCD_CORNER 0.8108294 430 23 468 69
CCCD_CORNER 0.5915849 14 20 44 61
CCCD_CORNER 0.21083884 430 7 472 60
CCCD_CORNER 0.051574968 435 694 472 751
CCCD_CORNER 0.050393496 11 19 38 53
CCCD_CORNER 0.041838422 440 688 480 740
CCCD_CORNER 0.03341829 443 697 484 757
CCCD_CORNER 0.01482093 13 710 36 743
CCCD_CORNER 0.012929226 440 5 484 61
CCCD_CORNER 0.012306558 440 19 482 73
