CMND_CORNER 0.9911016 828 879 938 964
CMND_CORNER 0.96475506 1029 313 1111 405
CMND_CORNER 0.5800472 191 20 299 76
SYMBOL 0.5190665 219 99 391 271
CMND_CORNER 0.2843871 30 598 88 688
CCCD_CORNER 0.04147213 191 20 299 76
CMND_CORNER 0.029687718 179 32 280 86
CCCD_CORNER 0.016116153 179 32 280 86
