SYMBOL 0.9986457 475 27 649 201
CMND_CORNER 0.9586596 35 860 95 930
CMND_CORNER 0.89295715 636 862 694 932
CMND_CORNER 0.089702144 23 5 83 38
CMND_CORNER 0.08170308 677 0 718 33
CMND_CORNER 0.015294559 655 3 701 32
CMND_CORNER 0.012253734 655 883 716 958
CMND_CORNER 0.011215345 652 863 718 936
