CMND_CORNER 0.9918305 41 828 117 939
CMND_CORNER 0.97486544 600 1025 689 1108
SYMBOL 0.795311 732 214 899 390
CMND_CORNER 0.53974646 925 193 984 304
CMND_CORNER 0.2939119 338 28 429 88
CMND_CORNER 0.14984868 318 31 405 86
CCCD_CORNER 0.018383767 336 31 425 92
CCCD_CORNER 0.012722307 703 109 796 193
CMND_CORNER 0.012578692 34 855 112 964
