SYMBOL 0.9964186 391 126 525 262
CCCD_CORNER 0.9907494 32 43 80 113
CCCD_CORNER 0.87852633 518 38 568 115
CCCD_CORNER 0.8683148 46 789 98 863
CCCD_CORNER 0.69710875 507 785 560 859
CCCD_CORNER 0.014932664 507 767 560 837
