CCCD_CORNER 0.8994549 493 11 521 37
CCCD_CORNER 0.73241717 239 12 267 33
CCCD_CORNER 0.6882692 489 369 516 393
CCCD_CORNER 0.59928155 239 367 265 393
CCCD_CORNER 0.58809894 240 375 267 401
CCCD_CORNER 0.5588129 492 375 520 402
SYMBOL 0.4964234 427 33 504 110
CCCD_CORNER 0.029968701 479 368 506 393
CMND_CORNER 0.016183069 493 11 521 37
SYMBOL 0.015747653 52 40 645 402
SYMBOL 0.01237448 0 0 445 273
CCCD_CORNER 0.01191267 471 13 503 37
CCCD_CORNER 0.0116149755 251 364 283 392
