CCCD_CORNER 0.9936718 179 155 220 200
SYMBOL 0.98777825 316 431 391 509
CCCD_CORNER 0.9755712 314 514 356 566
CCCD_CORNER 0.91491693 427 65 464 110
CCCD_CORNER 0.5316175 556 432 594 478
CCCD_CORNER 0.032929953 540 431 574 473
CCCD_CORNER 0.03273554 424 79 464 122
CCCD_CORNER 0.015916247 319 498 356 548
CCCD_CORNER 0.014168609 552 401 593 447
