SYMBOL 0.98961383 526 343 601 419
CCCD_CORNER 0.9866087 334 612 383 663
CCCD_CORNER 0.95770687 614 341 663 389
CCCD_CORNER 0.7350535 158 439 209 486
CCCD_CORNER 0.5517636 435 159 481 207
CMND_CORNER 0.18407309 614 341 663 389
SYMBOL 0.010301512 352 410 513 621
