CMND_CORNER 0.9453543 749 78 863 186
CMND_CORNER 0.89116734 538 1155 644 1263
SYMBOL 0.8865885 969 499 1124 661
CMND_CORNER 0.7949733 94 726 212 848
CMND_CORNER 0.60787475 1182 520 1288 624
CMND_CORNER 0.06936104 1204 535 1316 646
CCCD_CORNER 0.067363195 1182 520 1288 624
CMND_CORNER 0.01381896 776 76 896 187
CCCD_CORNER 0.012958512 538 1155 644 1263
CMND_CORNER 0.011329735 579 251 686 349
CMND_CORNER 0.011283068 579 300 671 397
