CMND_CORNER 0.9799478 1115 710 1219 800
SYMBOL 0.97935337 904 606 1060 763
CMND_CORNER 0.96899384 55 451 152 546
CMND_CORNER 0.93869275 254 1017 358 1108
CMND_CORNER 0.5985662 905 133 1013 225
CMND_CORNER 0.25786296 897 91 1009 197
CCCD_CORNER 0.10287389 1025 504 1106 581
CCCD_CORNER 0.079854704 1115 710 1219 800
CMND_CORNER 0.03369645 260 998 366 1086
CMND_CORNER 0.027180212 52 430 148 525
CMND_CORNER 0.02591461 1025 504 1106 581
CCCD_CORNER 0.020470891 905 133 1013 225
CCCD_CORNER 0.018450905 254 1017 358 1108
CMND_CORNER 0.01455073 692 238 768 329
CCCD_CORNER 0.01196753 55 451 152 546
