CMND_CORNER 0.93610466 31 765 94 828
CMND_CORNER 0.93176836 33 155 89 224
CMND_CORNER 0.4958513 899 140 944 217
CMND_CORNER 0.33317772 901 790 950 849
CMND_CORNER 0.32860225 899 775 950 835
SYMBOL 0.18362176 727 594 880 744
CMND_CORNER 0.12954286 894 178 941 241
CMND_CORNER 0.106109805 880 141 931 214
CMND_CORNER 0.07946878 32 784 93 849
CMND_CORNER 0.061065998 883 173 931 239
CMND_CORNER 0.0507211 881 770 934 831
CCCD_CORNER 0.04907548 910 539 946 595
CCCD_CORNER 0.048289657 879 539 924 590
CCCD_CORNER 0.048148233 31 765 94 828
CMND_CORNER 0.0394332 882 787 931 847
CMND_CORNER 0.029119149 34 179 90 244
CMND_CORNER 0.02831336 651 542 721 593
CCCD_CORNER 0.018088717 33 155 89 224
CCCD_CORNER 0.010596933 881 770 934 831
