SYMBOL 0.99138534 373 94 621 342
CCCD_CORNER 0.8199865 1290 1245 1467 1329
CCCD_CORNER 0.7507155 250 34 425 115
CCCD_CORNER 0.6976641 35 784 131 921
CCCD_CORNER 0.25291476 1564 445 1658 572
CCCD_CORNER 0.014914249 291 40 448 120
