SYMBOL 0.9938929 126 15 376 269
CCCD_CORNER 0.42627165 30 836 110 892
CCCD_CORNER 0.3845069 1381 858 1467 905
CCCD_CORNER 0.34465408 1369 2 1467 43
CCCD_CORNER 0.23760386 36 9 132 58
CCCD_CORNER 0.16757655 1354 5 1439 53
CCCD_CORNER 0.120600566 1371 829 1457 887
CCCD_CORNER 0.06135567 1347 827 1438 885
CCCD_CORNER 0.05092064 1343 848 1438 898
CCCD_CORNER 0.030769527 46 26 132 88
CCCD_CORNER 0.025044203 1354 26 1436 78
CCCD_CORNER 0.022718873 46 840 121 903
CCCD_CORNER 0.02060154 16 22 115 84
