SYMBOL 0.9950059 1095 644 1346 896
CCCD_CORNER 0.4885139 41 20 109 66
CCCD_CORNER 0.4644485 1359 23 1437 80
CCCD_CORNER 0.40468764 1345 855 1438 905
CCCD_CORNER 0.40377176 30 863 114 900
CCCD_CORNER 0.25711685 1373 9 1459 67
CCCD_CORNER 0.2374739 44 24 128 83
CCCD_CORNER 0.20364745 36 844 114 888
CCCD_CORNER 0.15419298 1348 837 1436 892
