SYMBOL 0.9989416 550 308 670 427
CMND_CORNER 0.9825979 27 20 75 58
CMND_CORNER 0.94370204 23 446 76 479
CMND_CORNER 0.9096916 686 14 740 54
CMND_CORNER 0.69137824 692 439 745 481
CMND_CORNER 0.17432374 699 439 762 485
CMND_CORNER 0.04411944 25 453 78 490
CMND_CORNER 0.039773267 698 14 762 52
CMND_CORNER 0.023758132 690 446 748 493
CMND_CORNER 0.018899765 687 2 745 43
CMND_CORNER 0.015197526 703 2 762 41
