CCCD_CORNER 0.9862011 608 182 666 265
SYMBOL 0.9789443 470 276 621 421
CCCD_CORNER 0.97498626 112 131 165 224
CCCD_CORNER 0.9657738 564 981 618 1070
CCCD_CORNER 0.84752357 56 947 110 1037
CCCD_CORNER 0.02671454 58 966 112 1061
CCCD_CORNER 0.021916606 564 964 616 1045
CCCD_CORNER 0.012806159 41 970 97 1063
SYMBOL 0.010111418 311 531 677 908
