SYMBOL 0.96563375 302 708 454 858
CCCD_CORNER 0.9523586 160 758 260 848
CCCD_CORNER 0.8816355 766 227 862 320
CCCD_CORNER 0.80931294 507 1144 591 1223
CCCD_CORNER 0.7347108 1117 606 1216 697
CCCD_CORNER 0.0404048 1140 600 1262 701
CCCD_CORNER 0.028256154 684 971 761 1038
CCCD_CORNER 0.027722059 1112 629 1221 721
CCCD_CORNER 0.023292203 718 955 807 1039
