CCCD_CORNER 0.99417603 3151 1231 3388 1561
CCCD_CORNER 0.99339193 1206 3158 1543 3388
CCCD_CORNER 0.9889922 2001 103 2321 328
SYMBOL 0.96797824 2619 1245 3083 1743
CCCD_CORNER 0.96533626 98 1962 312 2284
