SYMBOL 0.99659425 2233 1319 2712 1799
CCCD_CORNER 0.97264457 99 1736 283 1869
CCCD_CORNER 0.94580686 93 69 268 208
CCCD_CORNER 0.94524616 2754 76 2926 212
CCCD_CORNER 0.92279947 2717 1726 2936 1873
CCCD_CORNER 0.126172 2786 59 2980 205
CCCD_CORNER 0.06863389 2722 1749 2954 1919
CCCD_CORNER 0.05210925 2746 1721 2997 1889
CCCD_CORNER 0.023810804 102 1765 289 1903
CCCD_CORNER 0.02233149 2810 17 3002 169
