CMND_CORNER 0.9892063 3525 2064 3780 2356
CMND_CORNER 0.97139364 615 3050 973 3302
CMND_CORNER 0.8538212 2910 102 3300 352
CMND_CORNER 0.76799196 105 1165 331 1456
SYMBOL 0.41931334 2792 1702 3351 2211
CCCD_CORNER 0.021945955 615 3050 973 3302
CCCD_CORNER 0.016701728 3525 2064 3780 2356
CMND_CORNER 0.016346721 2927 28 3309 302
