SYMBOL 0.9988418 377 342 936 870
CMND_CORNER 0.5955427 3088 89 3245 307
CMND_CORNER 0.5708211 96 2164 284 2355
CMND_CORNER 0.5461714 92 61 321 252
CMND_CORNER 0.46867514 3100 2136 3239 2329
CMND_CORNER 0.1307974 22 54 267 249
CMND_CORNER 0.081876494 79 6 309 222
CMND_CORNER 0.04412983 3098 2087 3239 2279
CCCD_CORNER 0.037498757 3100 2136 3239 2329
CMND_CORNER 0.034772504 28 2225 213 2437
CMND_CORNER 0.034725025 2985 2142 3158 2311
CMND_CORNER 0.020508485 3005 113 3190 311
CMND_CORNER 0.013585082 3135 6 3247 234
