SYMBOL 0.9810527 1491 623 2044 1173
CMND_CORNER 0.97464085 3666 2257 3918 2609
CMND_CORNER 0.9595324 109 1450 382 1834
CMND_CORNER 0.93496794 2279 3654 2633 3926
CMND_CORNER 0.86783016 1527 132 1914 412
