SYMBOL 0.9946649 739 555 903 727
CCCD_CORNER 0.89479756 27 87 85 150
CCCD_CORNER 0.8417328 25 718 80 788
CCCD_CORNER 0.5102571 905 712 953 775
CCCD_CORNER 0.47395226 917 118 955 185
CCCD_CORNER 0.04526665 884 712 934 769
CCCD_CORNER 0.03048749 919 102 955 164
CCCD_CORNER 0.019597532 908 698 952 757
CMND_CORNER 0.016090339 18 13 58 42
