SYMBOL 0.9978828 558 56 725 215
CCCD_CORNER 0.8857215 86 870 149 931
CCCD_CORNER 0.6662297 708 9 774 59
CCCD_CORNER 0.6289406 716 873 781 932
CCCD_CORNER 0.53491694 122 7 180 45
CCCD_CORNER 0.47029692 718 883 785 951
CCCD_CORNER 0.01075039 711 21 780 77
