SYMBOL 0.9956222 462 83 626 248
CCCD_CORNER 0.9595779 614 28 673 88
CCCD_CORNER 0.80424607 27 24 78 70
CCCD_CORNER 0.61656016 20 876 66 926
CCCD_CORNER 0.45624152 564 857 631 922
CCCD_CORNER 0.030362627 555 870 621 938
