CMND_CORNER 0.9433412 340 1478 457 1602
SYMBOL 0.9297704 951 217 1199 472
CMND_CORNER 0.6577739 1232 60 1337 176
CMND_CORNER 0.6304441 1259 1435 1365 1570
CMND_CORNER 0.6249556 265 16 376 154
CMND_CORNER 0.47302482 268 56 378 177
CMND_CORNER 0.33927104 1238 15 1348 153
CMND_CORNER 0.103595294 1288 1459 1396 1604
CMND_CORNER 0.013049395 344 1442 459 1571
CCCD_CORNER 0.010496448 340 1478 457 1602
