SYMBOL 0.99874145 1725 1003 1974 1250
CMND_CORNER 0.98744583 2086 1164 2270 1321
CMND_CORNER 0.94745475 1748 244 1925 410
CMND_CORNER 0.8657229 761 1676 923 1822
CMND_CORNER 0.8429968 404 827 562 983
CCCD_CORNER 0.010156356 2086 1164 2270 1321
