SYMBOL 0.99564147 1885 1231 2230 1580
CMND_CORNER 0.8737599 2317 291 2480 427
CMND_CORNER 0.63094795 2312 1660 2487 1808
CMND_CORNER 0.5987326 291 1590 488 1734
CMND_CORNER 0.5082253 323 324 519 460
CMND_CORNER 0.18075591 2341 276 2553 420
CMND_CORNER 0.08981321 2338 1666 2545 1824
CMND_CORNER 0.01610941 2329 1636 2551 1777
CMND_CORNER 0.010615643 2355 204 2541 370
