SYMBOL 0.9921274 499 553 655 694
CMND_CORNER 0.981858 733 1412 848 1522
CMND_CORNER 0.95845765 513 391 619 488
CMND_CORNER 0.6853672 136 836 241 933
CMND_CORNER 0.5712179 1109 974 1205 1076
CMND_CORNER 0.21340027 87 827 207 934
CMND_CORNER 0.06648292 141 687 236 779
CMND_CORNER 0.037044123 88 756 200 866
CMND_CORNER 0.030599376 140 872 253 975
CMND_CORNER 0.028743371 76 873 207 986
CMND_CORNER 0.023300463 88 681 196 790
CMND_CORNER 0.01949306 144 754 232 853
CMND_CORNER 0.016053427 504 359 618 465
