SYMBOL 0.9890932 841 554 1029 738
CCCD_CORNER 0.9852637 42 709 135 774
CCCD_CORNER 0.96608716 1066 51 1184 118
CCCD_CORNER 0.96404815 45 54 125 118
CCCD_CORNER 0.69283354 1038 715 1144 790
CCCD_CORNER 0.022313822 1087 45 1214 115
CCCD_CORNER 0.015288226 1058 72 1176 134
CCCD_CORNER 0.014279108 1017 727 1124 796
