SYMBOL 0.977131 60 73 125 133
CMND_CORNER 0.81037736 16 34 50 59
CMND_CORNER 0.749704 17 269 50 293
CMND_CORNER 0.5609528 384 35 422 59
CMND_CORNER 0.40565383 390 267 425 292
CMND_CORNER 0.1303022 391 274 426 299
CMND_CORNER 0.020708166 386 40 427 63
CMND_CORNER 0.012225165 393 16 433 44
