SYMBOL 0.9973628 184 107 250 170
CMND_CORNER 0.9922829 23 198 64 239
CMND_CORNER 0.97439224 452 296 498 342
CMND_CORNER 0.9178504 185 29 231 74
CMND_CORNER 0.4275881 287 467 332 512
CMND_CORNER 0.034654282 292 461 339 505
CMND_CORNER 0.018670732 463 299 513 346
