SYMBOL 0.99708384 111 93 324 308
CCCD_CORNER 0.77099836 36 34 115 110
CCCD_CORNER 0.5514005 17 815 92 886
CCCD_CORNER 0.54330856 1169 40 1244 119
CCCD_CORNER 0.41550478 1182 32 1267 118
CCCD_CORNER 0.3640092 1189 828 1267 909
CCCD_CORNER 0.3547016 1170 828 1242 904
CCCD_CORNER 0.021268906 33 823 106 898
