SYMBOL 0.9966826 71 38 200 165
CCCD_CORNER 0.8096565 689 478 739 511
CCCD_CORNER 0.68880653 6 453 47 500
CCCD_CORNER 0.6375694 691 27 741 73
CCCD_CORNER 0.62181336 20 13 77 50
CCCD_CORNER 0.1380044 690 482 742 522
CCCD_CORNER 0.10277397 698 485 759 524
CCCD_CORNER 0.091450326 3 1 68 45
CCCD_CORNER 0.02041079 19 444 62 489
CCCD_CORNER 0.012941264 700 34 755 82
