CCCD_CORNER 0.99718297 1362 409 1470 501
SYMBOL 0.9800386 1028 794 1211 969
CCCD_CORNER 0.96501976 1170 996 1282 1083
CCCD_CORNER 0.8398009 479 103 597 201
CCCD_CORNER 0.44797587 260 653 368 742
CCCD_CORNER 0.013823034 1169 1014 1287 1111
