SYMBOL 0.81802946 69 357 196 483
CMND_CORNER 0.7032506 10 765 54 815
CMND_CORNER 0.699473 9 281 51 334
CMND_CORNER 0.63214374 675 762 710 809
CMND_CORNER 0.55801404 684 278 714 333
CMND_CORNER 0.45519403 19 757 62 806
CMND_CORNER 0.34900802 21 286 63 339
CMND_CORNER 0.078828275 656 757 699 805
CMND_CORNER 0.038806472 665 280 702 335
CCCD_CORNER 0.030039784 684 278 714 333
CCCD_CORNER 0.01581961 675 762 710 809
CMND_CORNER 0.014826745 6 780 45 836
CCCD_CORNER 0.012726871 19 757 62 806
SYMBOL 0.011979404 53 125 650 1262
