SYMBOL 0.9969272 789 206 916 331
CMND_CORNER 0.90638393 438 231 507 319
CMND_CORNER 0.8289396 1118 740 1189 821
CMND_CORNER 0.53503066 886 60 959 149
CMND_CORNER 0.43140694 674 905 739 985
CMND_CORNER 0.14614208 1104 744 1171 824
CMND_CORNER 0.08418278 873 79 941 164
CCCD_CORNER 0.07556527 674 905 739 985
CCCD_CORNER 0.047525354 1118 740 1189 821
CCCD_CORNER 0.03149778 438 231 507 319
CMND_CORNER 0.02531515 421 233 490 322
CMND_CORNER 0.013986866 649 913 714 994
