CMND_CORNER 0.9872673 1777 94 2068 314
CMND_CORNER 0.97526234 2759 1159 3013 1437
SYMBOL 0.9705666 2244 1144 2605 1524
CMND_CORNER 0.96556705 1150 2839 1436 3067
CMND_CORNER 0.88438636 90 1712 290 2015
CCCD_CORNER 0.01571047 90 1712 290 2015
CCCD_CORNER 0.011703765 2759 1159 3013 1437
