SYMBOL 0.9902773 1118 573 1276 737
CCCD_CORNER 0.91594666 1303 650 1405 737
CCCD_CORNER 0.8671778 1141 104 1240 196
CCCD_CORNER 0.7900861 487 953 581 1036
CCCD_CORNER 0.58607084 262 434 367 526
CCCD_CORNER 0.010405815 1162 83 1265 181
CCCD_CORNER 0.010248864 282 449 384 544
