CCCD_CORNER 0.9757415 1153 97 1236 162
CCCD_CORNER 0.9171855 268 670 355 731
CCCD_CORNER 0.9136052 1137 669 1227 731
CCCD_CORNER 0.86460125 238 113 331 177
SYMBOL 0.639357 970 534 1134 694
CCCD_CORNER 0.018303933 1169 96 1266 163
