SYMBOL 0.9846597 573 254 737 406
CCCD_CORNER 0.95301795 646 132 739 232
CCCD_CORNER 0.833086 436 1161 520 1268
CCCD_CORNER 0.813322 950 940 1034 1048
CCCD_CORNER 0.80264974 105 280 195 391
CCCD_CORNER 0.015941009 87 265 188 375
