CCCD_CORNER 0.9920941 2666 298 2970 544
CCCD_CORNER 0.9874785 335 1205 615 1440
SYMBOL 0.97631276 2662 1598 3133 2080
CCCD_CORNER 0.93987364 3231 1832 3549 2089
CCCD_CORNER 0.93716145 869 2684 1140 2928
