SYMBOL 0.99892396 1436 547 1911 1020
CCCD_CORNER 0.9484172 272 2757 427 3008
CCCD_CORNER 0.94443345 230 241 405 506
CCCD_CORNER 0.9248953 1865 250 2038 513
CCCD_CORNER 0.55232376 1837 2756 2009 3011
CCCD_CORNER 0.070278816 1861 2797 2029 3062
