CCCD_CORNER 0.98758465 391 860 516 928
CCCD_CORNER 0.96436524 1479 151 1601 228
CCCD_CORNER 0.5858248 398 196 517 270
CCCD_CORNER 0.55489105 1489 869 1611 941
SYMBOL 0.49958092 1259 686 1472 876
SYMBOL 0.07372871 547 533 1065 953
CCCD_CORNER 0.01630335 1450 157 1567 231
SYMBOL 0.015789764 582 405 1092 877
