SYMBOL 0.7960429 985 636 1093 752
CMND_CORNER 0.70414996 824 377 898 457
CCCD_CORNER 0.5246099 379 795 465 889
CCCD_CORNER 0.5194788 1117 639 1191 718
CCCD_CORNER 0.4713761 686 1106 780 1205
CCCD_CORNER 0.43906835 708 1105 804 1208
CCCD_CORNER 0.33668226 424 797 500 881
CCCD_CORNER 0.124881916 1124 620 1197 704
CMND_CORNER 0.113247566 708 1105 804 1208
CCCD_CORNER 0.08388374 434 770 504 855
CCCD_CORNER 0.07153507 384 761 465 861
CMND_CORNER 0.06676939 686 1106 780 1205
CMND_CORNER 0.058641773 1117 639 1191 718
CMND_CORNER 0.05310124 764 363 845 452
CCCD_CORNER 0.047150996 713 1144 818 1256
CMND_CORNER 0.03789276 816 418 890 492
CCCD_CORNER 0.037042353 1007 647 1105 746
CMND_CORNER 0.031812415 809 306 905 415
CMND_CORNER 0.030510394 859 370 951 463
CCCD_CORNER 0.027014788 692 1066 769 1153
CMND_CORNER 0.02412258 757 428 836 514
SYMBOL 0.019352673 161 0 1414 754
CCCD_CORNER 0.01888133 722 1065 800 1151
CMND_CORNER 0.016339721 740 291 843 405
CMND_CORNER 0.016205868 669 438 758 533
CMND_CORNER 0.015473786 722 1065 800 1151
CCCD_CORNER 0.014651892 681 1143 783 1261
SYMBOL 0.012527219 455 0 1404 958
CMND_CORNER 0.012059805 665 353 758 454
SYMBOL 0.011422548 0 0 1185 803
CCCD_CORNER 0.011090528 824 377 898 457
CCCD_CORNER 0.011066064 1055 612 1126 698
CMND_CORNER 0.010969314 1124 620 1197 704
SYMBOL 0.010580663 118 112 560 610
