SYMBOL 0.99852693 481 256 641 416
CCCD_CORNER 0.9949261 1222 458 1326 541
CCCD_CORNER 0.6428758 415 154 512 238
CCCD_CORNER 0.56457335 1019 945 1122 1018
CCCD_CORNER 0.52533513 243 673 337 749
CMND_CORNER 0.26359838 243 673 337 749
CCCD_CORNER 0.013758493 266 663 355 738
