SYMBOL 0.997329 263 809 418 964
CCCD_CORNER 0.9842264 463 132 534 224
CCCD_CORNER 0.84897935 932 340 1005 439
CCCD_CORNER 0.827716 157 942 242 1032
CMND_CORNER 0.22680663 672 1117 744 1195
CCCD_CORNER 0.19673984 672 1117 744 1195
CCCD_CORNER 0.04299035 666 1099 732 1181
CMND_CORNER 0.012260969 666 1099 732 1181
