CCCD_CORNER 0.98039776 1065 126 1157 200
CCCD_CORNER 0.9778221 233 408 334 495
CCCD_CORNER 0.9352477 1209 614 1306 695
CCCD_CORNER 0.89817137 455 915 535 986
SYMBOL 0.80579585 381 410 542 574
CMND_CORNER 0.04222988 455 915 535 986
CCCD_CORNER 0.010498796 256 405 362 491
