CMND_CORNER 0.9743249 1496 420 1750 742
CMND_CORNER 0.9736746 2167 3464 2427 3774
CMND_CORNER 0.938487 3064 1071 3322 1388
SYMBOL 0.8882853 2477 1298 2895 1740
CMND_CORNER 0.7337692 561 2919 833 3243
CMND_CORNER 0.029090492 1497 313 1760 653
