CMND_CORNER 0.9725127 411 2455 747 2723
CMND_CORNER 0.9640025 3487 1801 3791 2051
CMND_CORNER 0.93840945 1066 907 1396 1165
CMND_CORNER 0.62995905 2922 3382 3237 3660
SYMBOL 0.58342814 1298 1304 1741 1750
CMND_CORNER 0.2805238 2917 3438 3269 3739
CMND_CORNER 0.022135004 292 2454 669 2732
CCCD_CORNER 0.015438151 3487 1801 3791 2051
