SYMBOL 0.99499583 1751 1144 2184 1592
CMND_CORNER 0.97390026 2912 3075 3155 3368
CMND_CORNER 0.9665297 439 1162 700 1482
CMND_CORNER 0.92669296 1305 3684 1571 4013
CMND_CORNER 0.92475134 2044 665 2306 968
CMND_CORNER 0.063123874 2048 573 2319 909
CMND_CORNER 0.01390077 2997 3063 3272 3385
CCCD_CORNER 0.013493039 2912 3075 3155 3368
CCCD_CORNER 0.011184036 439 1162 700 1482
CMND_CORNER 0.010880071 2088 641 2379 976
