SYMBOL 0.9934285 764 754 875 864
CMND_CORNER 0.9741794 167 620 244 682
CCCD_CORNER 0.82259595 900 825 968 883
CMND_CORNER 0.7934715 291 1029 368 1090
CMND_CORNER 0.40804827 287 1049 367 1116
CMND_CORNER 0.3948224 791 417 864 482
CCCD_CORNER 0.1771265 896 812 963 868
CMND_CORNER 0.14284758 786 438 861 502
CCCD_CORNER 0.10846105 291 1029 368 1090
CMND_CORNER 0.040422607 900 825 968 883
CCCD_CORNER 0.035298336 167 620 244 682
CCCD_CORNER 0.024845367 801 411 878 482
CCCD_CORNER 0.024117822 803 439 877 504
CMND_CORNER 0.023383165 127 606 219 678
CMND_CORNER 0.02003082 116 551 210 636
CCCD_CORNER 0.011585147 287 1049 367 1116
