CMND_CORNER 0.98438567 31 417 84 470
SYMBOL 0.9506206 522 746 634 856
CMND_CORNER 0.64528614 646 871 704 911
CMND_CORNER 0.62528694 26 848 75 894
CMND_CORNER 0.55590695 669 443 716 487
CMND_CORNER 0.32278156 25 864 73 914
CMND_CORNER 0.29322895 679 430 725 478
CMND_CORNER 0.19193457 647 857 704 898
CCCD_CORNER 0.106518865 668 456 715 500
CCCD_CORNER 0.07101786 669 443 716 487
CCCD_CORNER 0.064977534 646 871 704 911
CCCD_CORNER 0.0634178 647 857 704 898
CCCD_CORNER 0.06198134 26 848 75 894
CMND_CORNER 0.059379946 668 456 715 500
CMND_CORNER 0.027863754 680 457 729 502
CCCD_CORNER 0.021902503 679 430 725 478
CMND_CORNER 0.0118458895 629 871 686 915
CMND_CORNER 0.010424166 11 865 62 920
