SYMBOL 0.99305433 372 446 476 553
CMND_CORNER 0.95252967 757 983 836 1052
CMND_CORNER 0.5975139 924 569 1008 643
CMND_CORNER 0.4299015 152 730 229 798
CMND_CORNER 0.41664952 123 743 213 819
CCCD_CORNER 0.28950766 334 364 399 428
CCCD_CORNER 0.108692385 318 372 385 431
CMND_CORNER 0.101978846 908 589 987 657
CMND_CORNER 0.06610792 318 372 385 431
CMND_CORNER 0.064671874 334 364 399 428
CMND_CORNER 0.0545238 763 965 837 1028
CCCD_CORNER 0.034711875 924 569 1008 643
CMND_CORNER 0.030136468 322 351 389 410
CMND_CORNER 0.02779105 124 722 211 801
CCCD_CORNER 0.020661874 322 351 389 410
CCCD_CORNER 0.019660916 908 589 987 657
