SYMBOL 0.9896017 720 581 851 710
CMND_CORNER 0.816543 105 223 174 267
CMND_CORNER 0.6554476 108 745 177 798
CMND_CORNER 0.5791395 863 726 928 775
CMND_CORNER 0.4937955 893 236 947 291
CCCD_CORNER 0.20760937 884 237 931 291
CMND_CORNER 0.16265982 884 237 931 291
CCCD_CORNER 0.15601608 863 726 928 775
CMND_CORNER 0.12802538 864 739 929 788
CMND_CORNER 0.10100433 108 234 178 277
CCCD_CORNER 0.09049894 108 745 177 798
CMND_CORNER 0.08966254 897 218 950 279
CCCD_CORNER 0.08635257 893 236 947 291
CMND_CORNER 0.06479679 873 727 957 775
CMND_CORNER 0.039824087 123 728 193 779
CCCD_CORNER 0.038770337 105 223 174 267
CMND_CORNER 0.034190632 882 218 931 280
CCCD_CORNER 0.014307015 897 218 950 279
CCCD_CORNER 0.010292861 123 728 193 779
