SYMBOL 0.97059053 441 322 537 417
CMND_CORNER 0.95374554 172 451 243 525
CMND_CORNER 0.92809665 815 600 881 665
CMND_CORNER 0.90379614 438 208 509 275
CMND_CORNER 0.72941726 582 848 649 917
CMND_CORNER 0.013404402 143 444 219 526
CMND_CORNER 0.012871677 595 836 665 903
CCCD_CORNER 0.01263165 815 600 881 665
