CCCD_CORNER 0.98778695 765 179 832 261
SYMBOL 0.982443 625 232 745 357
CCCD_CORNER 0.97512996 531 799 591 876
CCCD_CORNER 0.96147346 363 26 430 100
CCCD_CORNER 0.649463 122 664 181 740
CCCD_CORNER 0.16632284 102 668 169 746
CMND_CORNER 0.10599258 102 668 169 746
CMND_CORNER 0.06466772 122 664 181 740
