SYMBOL 0.99819213 861 753 1001 891
CCCD_CORNER 0.9938699 193 644 280 716
CCCD_CORNER 0.9937704 1024 820 1109 890
CCCD_CORNER 0.9517242 357 1070 445 1143
CCCD_CORNER 0.938864 864 401 951 467
CCCD_CORNER 0.013737674 348 1088 440 1167
