SYMBOL 0.98729277 947 334 1197 568
CMND_CORNER 0.8710805 1214 1598 1302 1730
CMND_CORNER 0.7317583 1215 135 1302 275
CMND_CORNER 0.7035907 293 94 391 232
CMND_CORNER 0.46953705 221 1610 327 1746
CMND_CORNER 0.15602426 211 1634 319 1783
CMND_CORNER 0.10406474 1232 132 1338 283
CMND_CORNER 0.09561375 1228 1600 1333 1745
CMND_CORNER 0.057002064 313 127 410 262
CMND_CORNER 0.051424358 1239 94 1327 254
CMND_CORNER 0.03640188 1236 1632 1335 1785
CMND_CORNER 0.025706839 1215 1630 1306 1779
CCCD_CORNER 0.010193739 1214 1598 1302 1730
