CMND_CORNER 0.99074227 1153 1915 1306 2072
CMND_CORNER 0.9901097 1671 536 1802 707
SYMBOL 0.689817 1340 676 1593 909
CMND_CORNER 0.67768544 817 193 948 355
CMND_CORNER 0.39884216 198 1608 358 1789
CCCD_CORNER 0.018154627 1671 536 1802 707
CMND_CORNER 0.01020388 796 114 952 304
