SYMBOL 0.9981608 1500 1035 1752 1282
CMND_CORNER 0.98507047 440 1685 628 1815
CMND_CORNER 0.9804335 93 767 274 920
CMND_CORNER 0.862914 1852 1199 2020 1338
CMND_CORNER 0.7428492 1580 314 1733 447
CMND_CORNER 0.015273788 1622 293 1786 429
CCCD_CORNER 0.014926242 93 767 274 920
