SYMBOL 0.99630284 332 145 573 395
CMND_CORNER 0.9657326 1601 48 1731 130
CMND_CORNER 0.8690323 135 44 277 124
CMND_CORNER 0.618954 91 952 233 1052
CMND_CORNER 0.46339786 1610 998 1739 1107
CMND_CORNER 0.10629061 1638 1021 1781 1133
CMND_CORNER 0.062377803 131 933 267 1029
CMND_CORNER 0.06149508 1608 13 1743 107
CMND_CORNER 0.057389893 135 13 284 103
CMND_CORNER 0.014462947 1640 11 1781 103
CMND_CORNER 0.013155349 1674 1083 1791 1219
CMND_CORNER 0.011628296 1628 47 1781 129
