SYMBOL 0.9967438 1022 638 1193 815
CCCD_CORNER 0.97011125 166 492 270 583
CCCD_CORNER 0.75939757 1050 160 1154 251
CCCD_CORNER 0.5774034 377 1019 487 1106
CCCD_CORNER 0.57132775 1223 725 1335 813
CCCD_CORNER 0.03472806 1237 732 1355 828
CCCD_CORNER 0.018955305 197 489 299 582
