SYMBOL 0.9927014 900 843 1078 1015
CCCD_CORNER 0.9923178 1264 488 1376 576
CCCD_CORNER 0.99166757 1040 1033 1145 1120
CCCD_CORNER 0.94295776 209 717 311 801
CCCD_CORNER 0.7739523 382 175 488 265
CCCD_CORNER 0.033219013 188 714 289 795
CCCD_CORNER 0.015553158 218 736 319 817
CCCD_CORNER 0.011539061 1037 1017 1141 1095
SYMBOL 0.01082724 162 0 1531 713
