SYMBOL 0.99230754 813 487 997 664
CCCD_CORNER 0.96892786 35 25 102 82
CCCD_CORNER 0.89467835 38 638 120 679
CCCD_CORNER 0.88739836 997 22 1075 66
CCCD_CORNER 0.7449142 1001 634 1073 677
CCCD_CORNER 0.21918802 999 640 1078 692
CCCD_CORNER 0.10229895 1015 644 1100 696
CCCD_CORNER 0.015334969 1017 8 1098 56
