CCCD_CORNER 0.99361426 341 31 430 98
CCCD_CORNER 0.9749316 27 337 89 426
CCCD_CORNER 0.9565547 532 872 627 926
SYMBOL 0.9226587 336 118 474 256
CCCD_CORNER 0.8789281 863 546 924 634
CMND_CORNER 0.15093295 863 546 924 634
