SYMBOL 0.9969434 354 86 488 222
CCCD_CORNER 0.9623571 16 27 50 76
CCCD_CORNER 0.9488895 476 30 512 86
CCCD_CORNER 0.91659003 16 746 48 794
CCCD_CORNER 0.36902067 473 741 512 796
CCCD_CORNER 0.15324578 474 754 516 814
CMND_CORNER 0.1384896 473 741 512 796
CCCD_CORNER 0.08805387 484 761 529 820
CCCD_CORNER 0.08659389 485 24 524 84
CMND_CORNER 0.061422475 474 754 516 814
CMND_CORNER 0.026677389 484 761 529 820
CCCD_CORNER 0.02117011 483 745 525 798
CMND_CORNER 0.010667669 483 745 525 798
