CCCD_CORNER 0.96748537 45 556 164 646
CCCD_CORNER 0.9601887 47 1437 171 1532
CCCD_CORNER 0.7973558 1405 542 1495 632
CCCD_CORNER 0.7251697 1400 1441 1489 1538
SYMBOL 0.6325613 187 614 454 871
CCCD_CORNER 0.20566319 1418 1444 1517 1543
CCCD_CORNER 0.064164855 7 546 138 647
CCCD_CORNER 0.03940866 8 1439 144 1538
CCCD_CORNER 0.020173915 1402 1465 1491 1565
SYMBOL 0.012635741 112 200 1384 2018
CCCD_CORNER 0.010457667 46 1469 166 1569
