SYMBOL 0.99800473 1641 1009 1907 1264
CCCD_CORNER 0.99367476 1331 383 1513 545
CCCD_CORNER 0.937503 345 1355 516 1525
CCCD_CORNER 0.88640076 1972 995 2145 1168
CCCD_CORNER 0.8772064 972 2007 1144 2176
