CCCD_CORNER 0.9702729 36 757 107 835
CCCD_CORNER 0.9397132 78 1305 166 1369
SYMBOL 0.90094984 758 1139 932 1314
CCCD_CORNER 0.39046943 938 716 988 784
CCCD_CORNER 0.25933683 930 1280 983 1346
CCCD_CORNER 0.21855047 933 1256 988 1326
CCCD_CORNER 0.19357646 905 1288 969 1352
CCCD_CORNER 0.11016634 939 731 991 806
CCCD_CORNER 0.021485198 908 718 968 786
CCCD_CORNER 0.01960643 902 733 974 808
SYMBOL 0.014087185 73 207 893 2031
SYMBOL 0.010290788 131 0 996 1101
