CCCD_CORNER 0.9774835 823 663 923 737
SYMBOL 0.95439965 69 746 236 903
CCCD_CORNER 0.91215533 887 1203 968 1283
CCCD_CORNER 0.6779243 8 1254 57 1317
CCCD_CORNER 0.5852407 9 709 65 775
CCCD_CORNER 0.11970368 27 708 88 772
CCCD_CORNER 0.09370999 901 1206 990 1295
CCCD_CORNER 0.064409204 7 1267 57 1340
CCCD_CORNER 0.04394565 22 1243 98 1310
CCCD_CORNER 0.040702343 9 726 56 800
SYMBOL 0.022590848 73 194 899 2023
SYMBOL 0.02032113 356 657 996 2048
SYMBOL 0.015704203 0 647 640 2048
SYMBOL 0.015476917 116 1094 996 2003
SYMBOL 0.014489703 139 0 996 1101
SYMBOL 0.013636067 0 0 618 1378
SYMBOL 0.0132302465 0 998 536 2048
SYMBOL 0.01208237 456 0 986 1639
SYMBOL 0.011813026 479 233 977 2048
SYMBOL 0.011320006 0 1245 657 2048
