CCCD_CORNER 0.98756254 481 1355 713 1574
CCCD_CORNER 0.934541 1789 2583 2008 2800
CCCD_CORNER 0.76373297 2562 1787 2788 2004
SYMBOL 0.70481914 1316 820 1650 1173
CCCD_CORNER 0.6646477 1302 569 1528 791
