CCCD_CORNER 0.98175204 1966 287 2162 426
CCCD_CORNER 0.97118247 1952 1420 2146 1545
CCCD_CORNER 0.77367866 199 1442 395 1561
SYMBOL 0.64962995 1602 1142 1933 1475
CCCD_CORNER 0.34981376 181 340 375 451
CMND_CORNER 0.013899255 2412 24 2555 102
SYMBOL 0.011052656 407 886 1168 1654
CMND_CORNER 0.010621684 2295 24 2505 126
