CMND_CORNER 0.9880575 14 160 47 206
CMND_CORNER 0.98240525 261 420 304 455
CMND_CORNER 0.9704888 173 16 215 51
CMND_CORNER 0.96822363 418 257 454 298
SYMBOL 0.954544 169 72 232 135
CCCD_CORNER 0.01921117 418 257 454 298
