CMND_CORNER 0.98841184 346 336 377 377
CMND_CORNER 0.980792 14 69 42 115
CMND_CORNER 0.95483595 132 418 167 448
CMND_CORNER 0.8613781 229 17 263 49
SYMBOL 0.33547792 189 63 250 129
CCCD_CORNER 0.017582946 346 336 377 377
