CMND_CORNER 0.98743594 83 14 126 44
CMND_CORNER 0.9637681 410 132 445 166
CMND_CORNER 0.9492174 12 223 43 260
CMND_CORNER 0.7218777 341 347 383 379
SYMBOL 0.38381645 112 60 173 122
CMND_CORNER 0.015160795 14 233 43 269
CCCD_CORNER 0.0124623235 410 132 445 166
