CMND_CORNER 0.9898583 85 346 126 377
CMND_CORNER 0.97172314 346 14 393 43
CMND_CORNER 0.96390986 14 131 47 167
CMND_CORNER 0.86250764 413 229 446 263
SYMBOL 0.31251243 334 188 397 250
CCCD_CORNER 0.010231378 85 346 126 377
