CCCD_CORNER 0.98114866 198 46 252 118
CCCD_CORNER 0.9734491 201 835 254 908
SYMBOL 0.9676225 572 149 721 295
CCCD_CORNER 0.73029435 688 827 740 903
CCCD_CORNER 0.6317965 706 68 762 146
CCCD_CORNER 0.051805537 718 50 778 136
CCCD_CORNER 0.011337776 209 70 261 134
