CCCD_CORNER 0.9889176 120 474 210 550
SYMBOL 0.9881393 837 608 986 758
CCCD_CORNER 0.82701546 293 924 385 997
CCCD_CORNER 0.63254994 867 198 950 273
CCCD_CORNER 0.40621233 1016 682 1109 758
CCCD_CORNER 0.089207135 874 185 964 263
CCCD_CORNER 0.0770337 998 691 1091 767
