SYMBOL 0.9949727 1996 271 2346 659
CMND_CORNER 0.9247116 2441 2116 2592 2320
CMND_CORNER 0.8678044 1040 2130 1181 2345
CMND_CORNER 0.7333619 1028 21 1182 142
CMND_CORNER 0.6380411 2419 62 2565 240
CMND_CORNER 0.40825087 2440 10 2592 216
CCCD_CORNER 0.14680684 1040 2130 1181 2345
CMND_CORNER 0.07952472 2429 2079 2575 2281
CMND_CORNER 0.047738213 1032 70 1184 208
CMND_CORNER 0.016574094 2503 2150 2685 2339
CMND_CORNER 0.015258404 949 2127 1100 2353
CMND_CORNER 0.014655026 947 14 1114 111
CMND_CORNER 0.011813082 2500 12 2671 179
