SYMBOL 0.9983985 286 935 647 1266
CMND_CORNER 0.8655345 2109 669 2331 813
CMND_CORNER 0.77400094 73 705 235 849
CCCD_CORNER 0.7141502 2157 2067 2341 2226
CMND_CORNER 0.7033163 27 2082 157 2240
CMND_CORNER 0.4671186 2157 2067 2341 2226
CMND_CORNER 0.32738936 22 681 208 831
CMND_CORNER 0.07326329 2076 683 2284 828
CMND_CORNER 0.07075794 66 2060 202 2221
CMND_CORNER 0.012000225 18 2146 114 2334
SYMBOL 0.010545532 180 327 2199 3224
CCCD_CORNER 0.010409891 2109 669 2331 813
