SYMBOL 0.9989398 905 436 1069 593
CMND_CORNER 0.97889143 1117 25 1210 74
CMND_CORNER 0.96164566 171 32 261 89
CMND_CORNER 0.8623982 1105 620 1210 686
CMND_CORNER 0.6608575 176 619 271 680
CMND_CORNER 0.029101834 1092 609 1192 670
CMND_CORNER 0.023507297 1118 3 1222 59
CMND_CORNER 0.014030487 146 627 244 687
