SYMBOL 0.9758994 231 73 324 165
CCCD_CORNER 0.9594137 321 508 352 560
CCCD_CORNER 0.92762774 15 516 42 567
CCCD_CORNER 0.78996646 311 21 344 69
CCCD_CORNER 0.59141207 14 26 39 77
CCCD_CORNER 0.027486334 320 497 351 547
CCCD_CORNER 0.01317417 305 9 340 61
SYMBOL 0.013103987 34 76 421 713
