SYMBOL 0.9842316 550 231 640 323
CCCD_CORNER 0.9801517 151 319 202 353
CCCD_CORNER 0.78231543 644 312 692 344
CCCD_CORNER 0.67278427 144 13 198 44
CCCD_CORNER 0.5426285 639 15 684 39
CCCD_CORNER 0.524138 640 7 687 34
CCCD_CORNER 0.13241827 652 312 709 347
CCCD_CORNER 0.016212452 651 6 707 33
SYMBOL 0.010014928 51 50 635 472
