SYMBOL 0.9818742 473 161 599 298
CCCD_CORNER 0.98162776 527 56 600 146
CCCD_CORNER 0.98002726 799 714 869 802
CCCD_CORNER 0.90472406 380 905 452 992
CCCD_CORNER 0.73238814 94 204 168 291
CCCD_CORNER 0.0104252575 375 924 449 1020
