CCCD_CORNER 0.9650241 680 132 739 212
CCCD_CORNER 0.96327657 78 641 141 717
CCCD_CORNER 0.9588346 472 731 533 800
SYMBOL 0.95615447 560 178 670 303
CCCD_CORNER 0.758683 292 25 352 76
CCCD_CORNER 0.022528177 303 11 361 71
CMND_CORNER 0.01983539 680 132 739 212
CCCD_CORNER 0.013997814 95 636 157 712
