CCCD_CORNER 0.9967173 202 1549 581 1920
CCCD_CORNER 0.9659954 946 3666 1384 4031
SYMBOL 0.95981956 677 1597 1310 2246
CCCD_CORNER 0.92539495 4273 2408 4693 2775
CCCD_CORNER 0.70055115 3486 310 3908 668
