CCCD_CORNER 0.992366 3605 1025 3942 1431
CCCD_CORNER 0.97005254 2411 4358 2750 4751
SYMBOL 0.9687423 712 3144 1341 3768
CCCD_CORNER 0.96159637 1482 257 1833 674
CCCD_CORNER 0.8622178 332 3652 645 4052
