CCCD_CORNER 0.99744356 2876 4497 3302 4912
CCCD_CORNER 0.9862519 4470 2887 4854 3277
CCCD_CORNER 0.9317528 1882 385 2306 792
SYMBOL 0.92409325 2642 3742 3298 4318
CCCD_CORNER 0.829828 300 2002 731 2422
