CCCD_CORNER 0.99618894 1027 344 1125 429
CCCD_CORNER 0.99455935 41 551 122 636
CCCD_CORNER 0.98259604 236 34 338 107
CCCD_CORNER 0.94424134 883 851 984 929
SYMBOL 0.6850805 298 119 457 279
CMND_CORNER 0.010074748 236 34 338 107
