CCCD_CORNER 0.87133276 858 233 929 286
CCCD_CORNER 0.83400124 27 827 94 883
SYMBOL 0.82610595 78 297 243 465
CCCD_CORNER 0.5896526 27 257 90 317
CCCD_CORNER 0.44973502 877 796 932 856
CCCD_CORNER 0.44055375 891 801 948 856
CCCD_CORNER 0.3858314 10 257 74 320
CCCD_CORNER 0.27745482 9 830 82 880
CCCD_CORNER 0.11897151 872 224 953 283
CCCD_CORNER 0.023184676 876 781 930 836
CCCD_CORNER 0.01982235 892 783 947 835
CCCD_CORNER 0.018935489 861 249 932 304
SYMBOL 0.013072016 70 127 863 1265
