CCCD_CORNER 0.98247874 124 702 219 788
CCCD_CORNER 0.95034295 1178 902 1285 993
CCCD_CORNER 0.9454715 347 1233 446 1323
CCCD_CORNER 0.84703356 962 369 1065 455
SYMBOL 0.71994394 972 814 1134 976
CMND_CORNER 0.09664775 1178 902 1285 993
CCCD_CORNER 0.021974904 123 674 221 763
