CCCD_CORNER 0.9342489 995 855 1059 929
SYMBOL 0.8340392 811 79 981 239
CCCD_CORNER 0.79015815 400 27 450 91
CCCD_CORNER 0.60222197 961 13 1024 74
CCCD_CORNER 0.5933307 417 877 477 932
CCCD_CORNER 0.46775553 419 890 476 951
CCCD_CORNER 0.2748941 397 5 447 84
CCCD_CORNER 0.057542536 997 873 1064 956
CMND_CORNER 0.017304175 963 25 1026 86
CCCD_CORNER 0.014098143 973 848 1036 924
