SYMBOL 0.9971258 595 308 736 449
CMND_CORNER 0.98007226 756 187 813 274
CMND_CORNER 0.9659046 762 1004 811 1093
CMND_CORNER 0.882001 214 176 271 262
CMND_CORNER 0.3999006 231 1033 288 1136
CMND_CORNER 0.15809087 219 1034 272 1142
CCCD_CORNER 0.05894848 762 1004 811 1093
CMND_CORNER 0.05863065 210 150 267 241
CMND_CORNER 0.05180943 229 186 285 272
CMND_CORNER 0.013622463 766 1040 817 1135
CMND_CORNER 0.010446343 780 183 847 273
