CMND_CORNER 0.99265 210 985 319 1067
SYMBOL 0.9449825 772 613 907 749
CMND_CORNER 0.90434146 963 710 1056 790
CMND_CORNER 0.699887 40 491 126 579
CMND_CORNER 0.6136381 786 208 877 286
CMND_CORNER 0.13362211 798 178 896 271
CMND_CORNER 0.04783984 970 727 1067 809
CMND_CORNER 0.024620565 31 479 112 563
CCCD_CORNER 0.022307837 786 208 877 286
CCCD_CORNER 0.014382992 210 985 319 1067
CCCD_CORNER 0.013373866 963 710 1056 790
