SYMBOL 0.998417 700 481 841 610
CMND_CORNER 0.9919836 1268 865 1357 969
CMND_CORNER 0.69147414 910 1258 1012 1358
CMND_CORNER 0.6097647 702 319 804 415
CMND_CORNER 0.5880793 339 693 423 777
CMND_CORNER 0.083480336 313 701 409 796
CMND_CORNER 0.023476636 688 334 789 427
CCCD_CORNER 0.015127353 321 691 409 780
CCCD_CORNER 0.013308118 1268 865 1357 969
