SYMBOL 0.99370277 691 387 798 487
CMND_CORNER 0.9316209 60 302 137 366
CMND_CORNER 0.88070345 246 670 320 732
CMND_CORNER 0.530056 835 442 908 503
CMND_CORNER 0.28280067 760 32 842 101
CMND_CORNER 0.24722849 757 64 832 128
CMND_CORNER 0.10794019 852 450 929 518
CMND_CORNER 0.056506786 729 68 799 131
CMND_CORNER 0.04098111 726 31 804 103
CCCD_CORNER 0.03580072 560 123 621 186
CMND_CORNER 0.0357903 560 123 621 186
CMND_CORNER 0.027637664 589 118 655 180
CMND_CORNER 0.026095618 799 23 890 99
CCCD_CORNER 0.020479843 835 442 908 503
CCCD_CORNER 0.018911313 564 146 619 205
CCCD_CORNER 0.016098939 589 118 655 180
CCCD_CORNER 0.015485936 60 302 137 366
CMND_CORNER 0.013322922 662 71 736 134
CMND_CORNER 0.0127010215 564 146 619 205
CMND_CORNER 0.0121881785 802 62 888 135
CMND_CORNER 0.011997325 757 110 831 164
CMND_CORNER 0.011886884 595 76 673 144
