SYMBOL 0.99626887 318 201 427 299
CMND_CORNER 0.92737895 265 113 344 173
CMND_CORNER 0.8977413 757 713 837 778
CMND_CORNER 0.7630435 862 311 939 372
CMND_CORNER 0.437864 90 458 161 525
CMND_CORNER 0.28691104 97 437 163 503
CMND_CORNER 0.2618434 52 461 127 535
CMND_CORNER 0.1337265 262 95 341 155
CMND_CORNER 0.047868267 220 511 286 570
CMND_CORNER 0.04352404 143 464 209 526
CMND_CORNER 0.036159974 92 491 168 563
CMND_CORNER 0.03408553 52 432 128 505
CMND_CORNER 0.02806688 149 501 220 566
CMND_CORNER 0.02051577 143 430 204 494
CCCD_CORNER 0.020060696 220 511 286 570
CMND_CORNER 0.019723546 265 544 331 603
CMND_CORNER 0.017719708 216 545 289 607
CCCD_CORNER 0.016122166 757 713 837 778
CMND_CORNER 0.015898064 272 519 321 569
CCCD_CORNER 0.014696866 272 519 321 569
CMND_CORNER 0.012502933 45 489 123 569
CMND_CORNER 0.012100608 99 390 171 460
CMND_CORNER 0.010901561 215 477 279 533
