CCCD_CORNER 0.98632634 998 266 1081 383
CCCD_CORNER 0.98505765 670 1200 764 1315
CCCD_CORNER 0.9393858 415 54 509 160
SYMBOL 0.8257452 814 342 988 517
CCCD_CORNER 0.74670607 78 973 170 1093
CMND_CORNER 0.016801024 998 266 1081 383
