CMND_CORNER 0.97513247 221 557 321 656
CMND_CORNER 0.9688543 846 1172 939 1267
CMND_CORNER 0.91473734 629 176 728 279
CMND_CORNER 0.90062356 1224 770 1325 871
SYMBOL 0.8599257 623 344 765 488
CMND_CORNER 0.041699268 184 550 296 659
CMND_CORNER 0.0295299 837 1205 941 1316
CMND_CORNER 0.020905716 631 210 729 304
CCCD_CORNER 0.010059475 1224 770 1325 871
