SYMBOL 0.99869365 897 447 1037 594
CMND_CORNER 0.9657218 580 156 659 262
CMND_CORNER 0.83008766 282 991 362 1091
CMND_CORNER 0.73525614 1079 378 1160 480
CMND_CORNER 0.5394551 813 1166 890 1274
CMND_CORNER 0.089289114 804 1153 879 1255
CMND_CORNER 0.010681859 228 1006 323 1116
