CMND_CORNER 0.9678435 307 847 402 943
CMND_CORNER 0.9155691 711 1220 806 1321
CMND_CORNER 0.91454256 1302 625 1402 729
CMND_CORNER 0.9121833 930 221 1029 320
SYMBOL 0.9010136 1094 623 1235 765
CMND_CORNER 0.05621777 272 842 374 948
CMND_CORNER 0.0541407 931 185 1031 299
CMND_CORNER 0.01152735 1270 636 1375 732
CCCD_CORNER 0.01032536 307 847 402 943
