CMND_CORNER 0.94026774 1190 616 1287 699
CMND_CORNER 0.9345046 384 912 492 997
CMND_CORNER 0.8148078 184 377 295 469
CMND_CORNER 0.67776513 1010 100 1114 181
SYMBOL 0.61396044 993 525 1123 652
CMND_CORNER 0.10232689 158 357 269 451
CMND_CORNER 0.041058116 1022 60 1137 153
CCCD_CORNER 0.01795003 384 912 492 997
CCCD_CORNER 0.011167895 184 377 295 469
