SYMBOL 0.99834394 695 457 862 624
CCCD_CORNER 0.94087034 874 31 930 86
CCCD_CORNER 0.8904587 871 614 931 669
CCCD_CORNER 0.76709074 27 29 73 83
CCCD_CORNER 0.6154593 28 603 79 667
CCCD_CORNER 0.23484024 883 614 949 672
CCCD_CORNER 0.025957298 874 50 932 103
CCCD_CORNER 0.024826013 23 595 72 652
CCCD_CORNER 0.013964795 25 47 74 103
