SYMBOL 0.98202455 672 529 818 669
CMND_CORNER 0.9613496 32 77 88 154
CMND_CORNER 0.95860404 834 687 926 750
CMND_CORNER 0.8797177 37 654 114 718
CMND_CORNER 0.47825527 892 114 946 184
CMND_CORNER 0.15138438 899 89 951 166
CMND_CORNER 0.09967951 40 642 118 699
CMND_CORNER 0.03293865 878 89 934 168
CMND_CORNER 0.01749711 842 721 928 783
SYMBOL 0.010038741 69 138 853 1278
