SYMBOL 0.9903467 831 559 976 703
CMND_CORNER 0.9763425 902 90 1005 186
CMND_CORNER 0.9692899 43 375 130 472
CMND_CORNER 0.92687446 1022 665 1122 746
CMND_CORNER 0.90060693 246 903 349 985
CCCD_CORNER 0.0292179 1022 665 1122 746
CMND_CORNER 0.024503669 1003 659 1098 743
CMND_CORNER 0.021364989 216 931 328 1026
CMND_CORNER 0.017722024 1030 691 1133 775
CMND_CORNER 0.0101680495 900 122 1002 201
