CCCD_CORNER 0.9947403 547 1210 628 1308
CCCD_CORNER 0.9930101 342 320 419 411
SYMBOL 0.9852107 659 565 805 705
CCCD_CORNER 0.97781813 67 1064 151 1164
CCCD_CORNER 0.6248767 804 504 877 590
CCCD_CORNER 0.02301358 793 528 872 624
