SYMBOL 0.9897932 811 832 963 978
CCCD_CORNER 0.98829997 1228 653 1324 754
CCCD_CORNER 0.9774736 659 87 755 193
CCCD_CORNER 0.95021033 324 464 416 555
CCCD_CORNER 0.8355882 868 992 957 1080
SYMBOL 0.03131418 835 867 971 1002
CCCD_CORNER 0.01307679 1188 654 1289 755
SYMBOL 0.010937771 457 313 821 826
CCCD_CORNER 0.010126526 654 124 751 214
