CCCD_CORNER 0.98973536 32 599 106 660
CCCD_CORNER 0.8886492 860 617 935 679
CCCD_CORNER 0.8136571 32 45 100 105
CCCD_CORNER 0.56193596 890 50 938 113
SYMBOL 0.5198968 698 464 874 640
SYMBOL 0.011982068 69 137 853 1278
