CMND_CORNER 0.9723331 837 708 916 766
CMND_CORNER 0.9694444 32 204 99 257
CMND_CORNER 0.9491729 853 193 924 254
SYMBOL 0.9330567 677 565 812 698
CMND_CORNER 0.84471595 46 740 126 797
CMND_CORNER 0.056068677 51 727 131 782
CMND_CORNER 0.037521858 859 163 926 230
CMND_CORNER 0.031327274 65 736 143 796
CMND_CORNER 0.02362245 873 186 956 254
CMND_CORNER 0.023587903 877 155 953 230
CCCD_CORNER 0.020813407 46 740 126 797
CMND_CORNER 0.013942685 843 740 919 799
CCCD_CORNER 0.012075064 853 193 924 254
CMND_CORNER 0.010889393 819 708 891 764
