SYMBOL 0.9942549 846 596 984 733
CMND_CORNER 0.9567641 301 976 393 1058
CMND_CORNER 0.9313584 876 186 973 268
CMND_CORNER 0.8526512 1033 680 1126 761
CMND_CORNER 0.694343 71 488 169 566
CMND_CORNER 0.032754652 291 1000 386 1090
CMND_CORNER 0.026489919 1057 687 1157 775
CMND_CORNER 0.020122703 854 190 949 270
CMND_CORNER 0.019434217 886 136 987 231
CMND_CORNER 0.013976256 263 1007 362 1096
CMND_CORNER 0.013017445 86 474 184 552
CCCD_CORNER 0.0125368005 876 186 973 268
