CMND_CORNER 0.95633054 731 203 801 294
CMND_CORNER 0.9243112 282 45 356 122
SYMBOL 0.9172196 560 271 686 396
CMND_CORNER 0.71298546 47 747 114 836
CMND_CORNER 0.6284615 482 858 547 938
CCCD_CORNER 0.050981563 731 203 801 294
CMND_CORNER 0.032970026 715 208 787 298
CMND_CORNER 0.013593917 62 757 125 849
CMND_CORNER 0.012254976 290 76 361 143
CCCD_CORNER 0.011913573 481 868 548 955
