SYMBOL 0.9980198 362 137 487 265
CMND_CORNER 0.917563 47 766 93 836
CMND_CORNER 0.90625674 27 34 75 102
CMND_CORNER 0.8706985 506 36 550 108
CMND_CORNER 0.42644197 493 730 537 804
CMND_CORNER 0.19380616 502 745 548 823
CMND_CORNER 0.13436534 34 770 80 839
CMND_CORNER 0.10236284 42 37 87 106
CCCD_CORNER 0.06535559 506 36 550 108
CMND_CORNER 0.03008573 497 39 540 114
CCCD_CORNER 0.02354522 497 39 540 114
CMND_CORNER 0.021210326 505 64 551 133
CMND_CORNER 0.016272392 29 65 75 125
CMND_CORNER 0.014488095 48 787 92 864
CMND_CORNER 0.014370281 30 790 77 859
CMND_CORNER 0.013577002 533 756 577 836
CCCD_CORNER 0.011156785 47 766 93 836
CMND_CORNER 0.011023334 21 3 73 82
