SYMBOL 0.99338067 705 380 834 502
CMND_CORNER 0.9794455 45 580 126 670
CMND_CORNER 0.9620911 558 45 649 125
CMND_CORNER 0.67796546 888 382 975 469
CMND_CORNER 0.48501948 383 867 465 945
CMND_CORNER 0.049989898 389 879 474 961
CCCD_CORNER 0.0351437 888 382 975 469
CMND_CORNER 0.020335292 564 75 646 144
CCCD_CORNER 0.015211071 558 45 649 125
