SYMBOL 0.9622019 405 181 528 307
CMND_CORNER 0.95452106 30 188 100 279
CMND_CORNER 0.94710904 486 45 556 132
CMND_CORNER 0.93722534 310 894 381 979
CMND_CORNER 0.62030536 713 709 779 794
CCCD_CORNER 0.04638115 486 45 556 132
CMND_CORNER 0.01954459 724 698 793 781
CMND_CORNER 0.017134668 31 160 94 255
CMND_CORNER 0.014929018 62 194 122 286
CMND_CORNER 0.011517808 484 71 554 149
