SYMBOL 0.99851364 973 459 1131 610
CMND_CORNER 0.9498403 255 65 336 127
CMND_CORNER 0.9443613 1156 627 1238 690
CMND_CORNER 0.942706 260 644 352 697
CMND_CORNER 0.7884531 1153 57 1234 109
CMND_CORNER 0.19901039 1160 43 1238 102
CMND_CORNER 0.08155652 1170 629 1270 695
CMND_CORNER 0.06782651 253 656 346 717
CMND_CORNER 0.031068606 1170 58 1274 110
CMND_CORNER 0.018265586 1175 40 1262 98
CCCD_CORNER 0.0146848 1153 57 1234 109
CCCD_CORNER 0.01441082 1156 627 1238 690
CMND_CORNER 0.013678453 250 38 334 103
CMND_CORNER 0.01342924 260 86 344 147
