SYMBOL 0.9938811 1092 503 1249 656
CMND_CORNER 0.98385274 1113 53 1227 138
CMND_CORNER 0.9775204 463 926 570 1009
CMND_CORNER 0.844966 260 385 365 473
CMND_CORNER 0.5968482 1297 605 1395 694
CCCD_CORNER 0.02462763 1113 53 1227 138
CMND_CORNER 0.01767017 238 355 345 451
CMND_CORNER 0.017298182 449 959 564 1052
CMND_CORNER 0.010452107 264 358 367 447
CCCD_CORNER 0.010207922 463 926 570 1009
