SYMBOL 0.9974898 998 607 1197 822
CCCD_CORNER 0.9647665 37 858 131 931
CCCD_CORNER 0.47708943 1192 780 1266 864
CCCD_CORNER 0.3854317 1204 51 1269 132
CCCD_CORNER 0.36833718 27 34 96 105
CCCD_CORNER 0.23916778 45 35 115 109
CCCD_CORNER 0.105080046 1218 759 1271 845
CCCD_CORNER 0.095737584 1175 793 1251 871
CCCD_CORNER 0.013142888 1179 51 1253 126
CCCD_CORNER 0.010848074 18 14 91 70
