SYMBOL 0.82016873 458 41 561 140
CCCD_CORNER 0.76147944 549 507 586 537
CCCD_CORNER 0.6590766 212 7 247 39
CCCD_CORNER 0.62486476 198 505 239 535
CCCD_CORNER 0.60361564 214 16 249 45
CCCD_CORNER 0.45321023 543 4 580 40
CCCD_CORNER 0.2893323 545 14 585 49
CCCD_CORNER 0.24938291 201 491 239 524
CCCD_CORNER 0.20201258 547 494 584 525
CCCD_CORNER 0.054343298 535 506 571 535
CCCD_CORNER 0.04149724 531 490 569 525
CCCD_CORNER 0.031422857 177 488 219 525
CCCD_CORNER 0.028272549 179 504 219 535
CCCD_CORNER 0.011556913 519 16 565 50
SYMBOL 0.011073545 69 56 850 537
