CMND_CORNER 0.9681635 771 1042 840 1112
CCCD_CORNER 0.9299995 307 598 382 669
SYMBOL 0.9281978 596 467 697 562
CMND_CORNER 0.87015957 595 350 666 420
CMND_CORNER 0.5978056 1000 746 1069 820
CMND_CORNER 0.34076893 307 598 382 669
CMND_CORNER 0.09195503 594 331 667 403
CCCD_CORNER 0.06021854 595 350 666 420
CCCD_CORNER 0.043813493 771 1042 840 1112
CCCD_CORNER 0.010803487 1000 746 1069 820
