CMND_CORNER 0.9527469 745 396 818 453
SYMBOL 0.6945736 715 688 818 792
CMND_CORNER 0.5844412 145 619 224 687
CMND_CORNER 0.5522249 854 765 924 826
CMND_CORNER 0.5429255 310 962 380 1017
CMND_CORNER 0.3383922 840 759 912 817
CCCD_CORNER 0.2619354 745 396 818 453
CCCD_CORNER 0.06683737 310 962 380 1017
CMND_CORNER 0.03455379 322 967 392 1028
CCCD_CORNER 0.033956345 145 619 224 687
CCCD_CORNER 0.016205328 854 765 924 826
