SYMBOL 0.9972487 665 377 813 530
CCCD_CORNER 0.95750886 32 18 97 51
CCCD_CORNER 0.9561613 32 514 93 555
CCCD_CORNER 0.9134721 837 511 917 558
CCCD_CORNER 0.85924464 830 18 911 50
CCCD_CORNER 0.13764693 831 8 918 44
CCCD_CORNER 0.011814385 815 10 892 46
