SYMBOL 0.99495935 1945 1062 2306 1386
CCCD_CORNER 0.99440974 1011 2419 1233 2640
CCCD_CORNER 0.93749744 157 1536 384 1769
CCCD_CORNER 0.7836898 1510 191 1737 412
CCCD_CORNER 0.60124946 2385 1044 2602 1263
