SYMBOL 0.993747 1029 366 1378 709
CCCD_CORNER 0.9844317 139 2043 261 2231
CCCD_CORNER 0.92746764 1346 2057 1476 2245
CCCD_CORNER 0.89899164 130 138 248 323
CCCD_CORNER 0.76680875 1346 128 1481 330
CCCD_CORNER 0.023820117 1319 168 1456 359
