CCCD_CORNER 0.99208826 1968 1979 2154 2204
CCCD_CORNER 0.97283137 821 2365 1009 2587
CCCD_CORNER 0.94265443 164 579 348 798
CCCD_CORNER 0.89619964 1311 155 1501 386
SYMBOL 0.8630747 1138 458 1468 808
