CCCD_CORNER 0.99355316 533 1974 759 2157
CCCD_CORNER 0.982347 149 827 364 1009
CCCD_CORNER 0.9692206 2363 1308 2582 1493
CCCD_CORNER 0.9492348 1928 174 2157 348
SYMBOL 0.8747464 1927 1134 2283 1469
CCCD_CORNER 0.010829364 550 1939 759 2114
