SYMBOL 0.9966702 702 163 1012 460
CMND_CORNER 0.45784256 35 1627 105 1741
CMND_CORNER 0.45006222 22 36 69 126
CMND_CORNER 0.3967063 22 53 76 145
CMND_CORNER 0.37736067 1045 25 1111 135
CMND_CORNER 0.3105659 1013 1635 1088 1735
CCCD_CORNER 0.30299115 29 489 116 586
CMND_CORNER 0.27214503 1037 1670 1111 1767
CMND_CORNER 0.26058424 1021 50 1088 157
CCCD_CORNER 0.052575458 1013 1635 1088 1735
CMND_CORNER 0.04711814 33 53 89 154
CMND_CORNER 0.021456005 26 1663 83 1758
CCCD_CORNER 0.019654892 35 524 115 626
