SYMBOL 0.99915683 1559 364 2045 870
CMND_CORNER 0.70313555 2136 77 2330 322
CMND_CORNER 0.6962833 123 3027 305 3215
CMND_CORNER 0.5219588 2104 2911 2309 3182
CMND_CORNER 0.34468925 144 28 342 180
CMND_CORNER 0.022193644 132 92 332 282
CMND_CORNER 0.01926201 2077 2958 2273 3244
CMND_CORNER 0.014291805 178 3036 341 3234
