CCCD_CORNER 0.9781943 72 154 207 232
CCCD_CORNER 0.9759797 1338 162 1464 238
SYMBOL 0.9757121 215 211 449 424
CCCD_CORNER 0.92931277 48 952 127 1043
CCCD_CORNER 0.62322456 1388 954 1494 1047
CCCD_CORNER 0.34236097 1410 958 1521 1051
CCCD_CORNER 0.01756475 1419 977 1524 1076
CCCD_CORNER 0.0105566885 1396 977 1496 1075
CCCD_CORNER 0.0101183355 1308 170 1427 243
