SYMBOL 0.97711915 498 261 657 417
CCCD_CORNER 0.9376411 77 1042 130 1139
CCCD_CORNER 0.8237679 648 1040 698 1135
CCCD_CORNER 0.73302066 647 146 700 243
CCCD_CORNER 0.53638804 83 147 136 236
CCCD_CORNER 0.104803026 657 1044 716 1143
CCCD_CORNER 0.0686304 90 165 143 254
CCCD_CORNER 0.032534014 90 1041 142 1137
CCCD_CORNER 0.022611652 657 160 717 261
