SYMBOL 0.9989502 568 259 732 421
CCCD_CORNER 0.99458414 571 124 678 227
CCCD_CORNER 0.9916569 798 1161 900 1260
CCCD_CORNER 0.9686235 1197 749 1305 858
CCCD_CORNER 0.90920156 164 516 261 620
CCCD_CORNER 0.012367267 799 1137 900 1234
