SYMBOL 0.9977139 155 126 276 247
CMND_CORNER 0.94955635 50 516 122 568
CMND_CORNER 0.89778715 57 56 124 107
CMND_CORNER 0.74180573 746 69 810 117
CMND_CORNER 0.6452044 741 512 817 558
CMND_CORNER 0.1428454 737 501 813 546
CMND_CORNER 0.12644342 758 64 829 111
CMND_CORNER 0.06290082 70 514 135 565
CMND_CORNER 0.035022587 758 543 844 601
CMND_CORNER 0.025999745 41 535 111 594
CMND_CORNER 0.016630022 737 542 812 596
CMND_CORNER 0.01498832 756 77 829 127
CMND_CORNER 0.012759519 48 34 118 89
CMND_CORNER 0.010707422 767 30 842 87
