SYMBOL 0.9963581 620 397 710 487
CMND_CORNER 0.9758197 228 646 295 703
CMND_CORNER 0.9639155 85 307 156 365
CMND_CORNER 0.8607913 639 113 706 167
CMND_CORNER 0.39535028 742 456 807 508
CMND_CORNER 0.04614372 641 97 708 156
CCCD_CORNER 0.021962093 85 307 156 365
CCCD_CORNER 0.019610668 228 646 295 703
CCCD_CORNER 0.0129360445 639 113 706 167
CMND_CORNER 0.012527896 51 300 130 366
