CMND_CORNER 0.9034307 592 851 646 933
CMND_CORNER 0.81950474 115 899 167 985
SYMBOL 0.7504746 492 192 617 334
CMND_CORNER 0.6008356 651 60 701 148
CMND_CORNER 0.59358025 89 51 148 134
CMND_CORNER 0.043605294 660 74 723 165
CMND_CORNER 0.041384768 130 886 182 968
CMND_CORNER 0.029389774 594 833 644 913
CMND_CORNER 0.026121244 579 852 633 931
CMND_CORNER 0.021572521 83 910 140 993
CMND_CORNER 0.016312812 660 50 718 144
CCCD_CORNER 0.014814241 592 851 646 933
CMND_CORNER 0.013846111 90 71 150 156
CCCD_CORNER 0.010558222 651 60 701 148
CCCD_CORNER 0.010012843 115 899 167 985
