SYMBOL 0.9978775 364 184 508 312
CMND_CORNER 0.980478 292 43 392 124
CMND_CORNER 0.9779087 1006 358 1094 440
CMND_CORNER 0.8192502 896 826 994 902
CMND_CORNER 0.6588598 65 555 169 631
CMND_CORNER 0.024417462 87 566 182 644
CMND_CORNER 0.011619241 985 363 1070 444
CMND_CORNER 0.01156385 918 847 1029 924
