CMND_CORNER 0.9796141 1929 2219 2102 2438
CMND_CORNER 0.9638368 934 2534 1099 2743
CMND_CORNER 0.91553205 459 989 624 1180
SYMBOL 0.8664708 1252 1003 1516 1269
CMND_CORNER 0.8410998 1441 679 1611 885
CMND_CORNER 0.042757675 1471 647 1657 878
CMND_CORNER 0.03501477 893 2551 1064 2759
CCCD_CORNER 0.020245897 459 989 624 1180
CMND_CORNER 0.016728468 468 1040 635 1239
