SYMBOL 0.99614775 1488 1126 1770 1398
CMND_CORNER 0.9800733 300 2075 470 2279
CMND_CORNER 0.9316489 931 597 1097 780
CMND_CORNER 0.89588225 1869 998 2035 1194
CMND_CORNER 0.6514808 1266 2493 1436 2701
CMND_CORNER 0.14368418 1898 974 2078 1193
CMND_CORNER 0.02715941 932 538 1101 728
CMND_CORNER 0.021422477 346 2071 513 2276
CCCD_CORNER 0.013449972 1869 998 2035 1194
