SYMBOL 0.9985619 79 84 199 192
CMND_CORNER 0.94501466 21 22 70 67
CMND_CORNER 0.8275316 14 454 52 502
CMND_CORNER 0.33595872 679 463 715 517
CMND_CORNER 0.26779816 660 31 714 74
CMND_CORNER 0.24311835 652 33 700 75
CMND_CORNER 0.1445576 684 471 716 529
CMND_CORNER 0.12207115 657 40 717 83
CMND_CORNER 0.1060463 15 444 50 488
CCCD_CORNER 0.029732626 21 22 70 67
CMND_CORNER 0.027524654 9 20 60 63
CMND_CORNER 0.018410206 10 477 44 525
CCCD_CORNER 0.013958854 652 33 700 75
CMND_CORNER 0.0126716355 655 461 700 511
CMND_CORNER 0.011979618 651 478 699 530
CCCD_CORNER 0.011396163 14 454 52 502
