CMND_CORNER 0.97788143 154 670 231 733
SYMBOL 0.93207353 627 385 747 491
CMND_CORNER 0.90006804 775 460 836 521
CMND_CORNER 0.817726 21 277 73 345
CMND_CORNER 0.81670266 662 39 736 106
CCCD_CORNER 0.02988323 154 670 231 733
