CCCD_CORNER 0.9967565 995 322 1086 399
CCCD_CORNER 0.95630336 217 47 316 123
CCCD_CORNER 0.88416886 835 817 933 893
CCCD_CORNER 0.75830895 37 552 122 623
SYMBOL 0.55844426 291 141 443 289
CCCD_CORNER 0.07166964 223 64 323 136
