CCCD_CORNER 0.9954861 769 342 833 414
SYMBOL 0.9936661 635 339 748 452
CCCD_CORNER 0.83730775 79 472 149 538
CCCD_CORNER 0.83338904 515 42 587 113
CCCD_CORNER 0.60994774 331 731 404 800
CCCD_CORNER 0.056051858 322 744 396 817
CCCD_CORNER 0.011114479 516 58 590 131
