CCCD_CORNER 0.9770164 33 298 111 355
CCCD_CORNER 0.8633983 864 859 932 920
SYMBOL 0.7745961 705 719 862 876
CCCD_CORNER 0.7584534 34 856 110 912
CCCD_CORNER 0.4877532 875 304 932 362
CCCD_CORNER 0.15406649 874 864 954 924
CCCD_CORNER 0.055329144 885 315 947 376
CCCD_CORNER 0.03841619 36 318 109 374
SYMBOL 0.010910331 71 122 868 1256
