CCCD_CORNER 0.9955943 1119 805 1226 894
CCCD_CORNER 0.99402124 120 576 216 663
SYMBOL 0.8114004 928 729 1092 886
CCCD_CORNER 0.6544888 307 1091 409 1179
CCCD_CORNER 0.6515848 949 269 1053 360
CCCD_CORNER 0.017036483 926 283 1037 374
