CCCD_CORNER 0.9297943 845 798 893 875
CCCD_CORNER 0.80115885 372 838 424 915
CCCD_CORNER 0.59607285 373 47 422 115
SYMBOL 0.5064501 735 142 874 289
CCCD_CORNER 0.46163967 833 48 883 125
CCCD_CORNER 0.33038375 382 836 438 909
CCCD_CORNER 0.24052863 828 78 886 143
CCCD_CORNER 0.16036947 390 51 436 118
CCCD_CORNER 0.097976126 855 801 909 880
CCCD_CORNER 0.06669579 865 79 916 147
CCCD_CORNER 0.047052145 864 44 916 118
CCCD_CORNER 0.04637721 374 73 426 139
CCCD_CORNER 0.028113455 394 74 447 137
SYMBOL 0.01858692 420 78 615 318
CCCD_CORNER 0.017346412 374 817 426 895
SYMBOL 0.0123557765 92 101 1140 957
CCCD_CORNER 0.010083436 838 827 889 903
CCCD_CORNER 0.010062941 874 132 937 211
