SYMBOL 0.9975337 937 405 1090 554
CCCD_CORNER 0.8766612 826 1045 896 1141
CCCD_CORNER 0.65863496 1082 339 1144 422
CCCD_CORNER 0.5549401 376 903 446 1006
CCCD_CORNER 0.40418652 640 140 710 246
CCCD_CORNER 0.30145678 637 170 709 265
CCCD_CORNER 0.30025053 356 913 431 1010
CCCD_CORNER 0.19467483 1107 329 1180 420
CCCD_CORNER 0.033112172 336 941 424 1046
CCCD_CORNER 0.027314719 598 136 672 243
CCCD_CORNER 0.018860582 377 939 463 1046
CCCD_CORNER 0.015056009 1116 292 1201 389
CCCD_CORNER 0.012467435 812 1088 897 1196
CCCD_CORNER 0.0120258 862 1050 932 1142
CCCD_CORNER 0.010803145 604 187 673 275
