SYMBOL 0.9751082 760 284 905 430
CCCD_CORNER 0.96283275 1065 885 1135 988
CCCD_CORNER 0.79766554 818 192 887 275
CCCD_CORNER 0.3709798 638 1061 715 1160
CCCD_CORNER 0.11012081 350 327 422 420
CCCD_CORNER 0.05192616 629 1084 719 1197
CCCD_CORNER 0.04478913 816 154 887 252
CCCD_CORNER 0.035135183 392 325 459 418
CCCD_CORNER 0.026385484 871 195 937 282
CCCD_CORNER 0.02634687 1060 864 1126 963
CCCD_CORNER 0.02182234 755 191 833 277
CCCD_CORNER 0.019441348 589 1063 666 1157
CCCD_CORNER 0.018274238 1092 893 1173 998
CCCD_CORNER 0.016898666 575 1098 664 1209
CCCD_CORNER 0.014706239 329 289 414 396
SYMBOL 0.012566871 466 362 699 634
CMND_CORNER 0.011318843 1376 800 1470 986
CCCD_CORNER 0.010720911 386 286 464 390
