SYMBOL 0.9935958 580 353 719 490
CCCD_CORNER 0.8715336 26 475 76 507
CCCD_CORNER 0.8534375 725 15 780 48
CCCD_CORNER 0.76648724 726 472 780 505
CCCD_CORNER 0.7013752 22 23 68 67
CCCD_CORNER 0.11732259 727 477 786 518
CCCD_CORNER 0.101216696 739 480 801 520
CCCD_CORNER 0.053110544 736 472 795 509
CCCD_CORNER 0.043596454 738 3 799 39
CCCD_CORNER 0.01662882 23 33 74 79
