SYMBOL 0.9980599 312 603 477 756
CCCD_CORNER 0.89134073 1017 779 1112 862
CCCD_CORNER 0.87076 43 1007 134 1100
CCCD_CORNER 0.7761843 237 518 341 595
CCCD_CORNER 0.5196243 881 1316 970 1408
CCCD_CORNER 0.017374095 870 1326 958 1431
CCCD_CORNER 0.012624676 1027 765 1115 845
CMND_CORNER 0.011515491 881 1328 975 1430
