SYMBOL 0.9950654 2804 2051 3277 2532
CMND_CORNER 0.9864114 150 1540 484 1850
CMND_CORNER 0.96673256 815 3364 1152 3637
CMND_CORNER 0.8841215 3436 2311 3775 2614
CMND_CORNER 0.6587891 2859 611 3236 895
CCCD_CORNER 0.312679 3436 2311 3775 2614
CMND_CORNER 0.030366546 3510 2334 3872 2639
CCCD_CORNER 0.019431861 815 3364 1152 3637
