CMND_CORNER 0.9647339 55 656 140 733
SYMBOL 0.9553627 826 1079 1013 1260
CMND_CORNER 0.8524497 1039 1293 1115 1360
CMND_CORNER 0.8327625 53 1267 138 1352
CMND_CORNER 0.58709157 1043 631 1120 703
CMND_CORNER 0.18615569 57 1251 143 1331
CCCD_CORNER 0.179164 38 1826 109 1945
CMND_CORNER 0.16320182 1052 1297 1144 1372
CMND_CORNER 0.15151702 1041 610 1116 684
CMND_CORNER 0.098076895 1058 635 1138 711
CMND_CORNER 0.0795823 1059 592 1136 679
CMND_CORNER 0.02547191 50 598 128 683
CMND_CORNER 0.019975292 1040 1263 1116 1330
CCCD_CORNER 0.013580215 36 1768 97 1881
CCCD_CORNER 0.012967524 1043 631 1120 703
