CCCD_CORNER 0.9629658 292 715 367 775
SYMBOL 0.9482281 932 828 1062 963
CCCD_CORNER 0.93298745 932 467 1017 539
CCCD_CORNER 0.9145427 446 1116 525 1183
CCCD_CORNER 0.5881976 1090 888 1176 956
CCCD_CORNER 0.024097683 285 694 361 754
CMND_CORNER 0.021767516 292 715 367 775
CCCD_CORNER 0.012931454 451 1093 523 1161
