CCCD_CORNER 0.99197054 1179 751 1257 830
SYMBOL 0.99035954 708 374 838 504
CCCD_CORNER 0.94052136 699 256 784 341
CCCD_CORNER 0.8209666 386 584 470 666
CCCD_CORNER 0.7911704 886 1064 963 1144
CCCD_CORNER 0.13789144 365 580 452 663
