SYMBOL 0.99656075 80 60 199 178
CCCD_CORNER 0.96477795 26 439 76 480
CCCD_CORNER 0.93877167 27 28 80 69
CCCD_CORNER 0.80447906 648 442 697 482
CCCD_CORNER 0.5872953 652 21 697 62
CCCD_CORNER 0.30495775 660 18 714 60
CCCD_CORNER 0.26844183 660 444 715 484
CCCD_CORNER 0.022794435 647 434 696 472
