CCCD_CORNER 0.994406 447 1156 543 1268
CCCD_CORNER 0.9927449 119 259 215 373
CCCD_CORNER 0.97358465 1034 965 1125 1071
SYMBOL 0.9649523 454 948 625 1121
CCCD_CORNER 0.94927615 699 48 786 157
CCCD_CORNER 0.020148417 1015 960 1101 1068
