SYMBOL 0.969258 487 101 648 261
CCCD_CORNER 0.96434593 104 880 162 961
CCCD_CORNER 0.90676105 629 851 690 937
CCCD_CORNER 0.5735516 70 24 122 102
CCCD_CORNER 0.1486934 602 7 677 76
CCCD_CORNER 0.12572013 621 6 694 68
CCCD_CORNER 0.1254986 627 29 690 95
CCCD_CORNER 0.11295054 607 25 672 93
CCCD_CORNER 0.055887725 39 10 99 69
CMND_CORNER 0.042688288 621 6 694 68
CMND_CORNER 0.033023134 602 7 677 76
CCCD_CORNER 0.013848844 634 79 695 157
CCCD_CORNER 0.012344515 639 131 695 218
CCCD_CORNER 0.011675143 95 30 141 107
CCCD_CORNER 0.010732844 41 24 99 105
