SYMBOL 0.9979722 507 159 621 270
CMND_CORNER 0.9441761 232 745 277 815
CMND_CORNER 0.7618884 208 80 254 144
CMND_CORNER 0.70342034 665 709 713 778
CMND_CORNER 0.6939295 632 56 680 130
CCCD_CORNER 0.18668833 208 80 254 144
CCCD_CORNER 0.13541752 665 709 713 778
CCCD_CORNER 0.08593364 232 745 277 815
CMND_CORNER 0.0698055 204 66 248 127
CMND_CORNER 0.041783407 670 729 722 798
CMND_CORNER 0.031583432 649 708 699 775
CMND_CORNER 0.014230009 249 741 298 805
CCCD_CORNER 0.011890538 632 56 680 130
CMND_CORNER 0.011753825 654 48 703 124
CCCD_CORNER 0.011704786 649 708 699 775
