SYMBOL 0.98886526 343 687 453 800
CMND_CORNER 0.9843859 277 583 358 650
CMND_CORNER 0.9430271 777 1196 862 1259
CMND_CORNER 0.8497821 141 1005 226 1066
CMND_CORNER 0.6161451 903 770 988 835
CCCD_CORNER 0.54460096 141 1005 226 1066
CCCD_CORNER 0.09692634 777 1196 862 1259
CCCD_CORNER 0.076535314 903 770 988 835
CCCD_CORNER 0.045000166 277 583 358 650
CMND_CORNER 0.022440463 777 1179 856 1239
CMND_CORNER 0.010396514 133 1022 222 1085
