CMND_CORNER 0.97156054 2485 1162 2741 1402
CMND_CORNER 0.9626312 297 1679 516 1914
CMND_CORNER 0.91209835 1527 272 1761 512
CMND_CORNER 0.88912016 1091 2525 1315 2751
SYMBOL 0.7180508 1944 1169 2298 1508
CMND_CORNER 0.046038132 2535 1138 2836 1416
CMND_CORNER 0.016906496 198 1663 424 1904
CCCD_CORNER 0.015547625 297 1679 516 1914
CMND_CORNER 0.012377156 1517 178 1771 447
