SYMBOL 0.9983224 905 779 1255 1123
CMND_CORNER 0.9884029 311 1682 540 1871
CMND_CORNER 0.97902155 2539 1140 2767 1323
CMND_CORNER 0.9522656 2117 2223 2333 2389
CMND_CORNER 0.856664 714 450 949 646
CMND_CORNER 0.0431455 2149 2242 2381 2413
CMND_CORNER 0.03475585 666 428 909 635
