SYMBOL 0.99710387 470 290 581 398
CCCD_CORNER 0.98512864 21 385 71 417
CCCD_CORNER 0.86855894 595 13 638 42
CCCD_CORNER 0.8504587 585 387 638 420
CCCD_CORNER 0.80638194 18 16 56 50
CCCD_CORNER 0.09522904 596 3 640 36
CCCD_CORNER 0.06321594 605 2 655 35
CCCD_CORNER 0.018999487 597 394 658 431
CCCD_CORNER 0.015259035 22 392 69 428
CCCD_CORNER 0.011861691 594 386 654 423
