SYMBOL 0.99780995 446 476 1074 1117
CCCD_CORNER 0.99551696 141 297 436 544
CCCD_CORNER 0.99402535 146 2573 457 2809
CCCD_CORNER 0.98257947 3610 266 3967 508
CCCD_CORNER 0.92207515 3642 2526 3998 2779
CCCD_CORNER 0.016664805 3538 288 3864 514
