CCCD_CORNER 0.99462575 239 2872 664 3294
CCCD_CORNER 0.9846234 1856 4459 2289 4876
CCCD_CORNER 0.94796747 4349 1899 4769 2313
SYMBOL 0.9406773 810 2645 1439 3279
CCCD_CORNER 0.65235955 2729 313 3141 720
