CCCD_CORNER 0.96147513 176 631 255 694
CCCD_CORNER 0.95190966 770 428 828 488
SYMBOL 0.88896424 647 358 760 473
CCCD_CORNER 0.78117263 68 260 133 321
CCCD_CORNER 0.7760427 646 65 717 112
CCCD_CORNER 0.25288394 42 240 107 306
CCCD_CORNER 0.17255417 641 47 718 99
CCCD_CORNER 0.06402145 46 256 114 315
CCCD_CORNER 0.029803572 781 436 838 495
CMND_CORNER 0.015989652 12 217 66 298
CCCD_CORNER 0.0156257 175 658 248 723
