SYMBOL 0.9416278 528 180 642 291
CCCD_CORNER 0.80330384 286 25 344 82
CCCD_CORNER 0.6850495 436 728 499 809
CCCD_CORNER 0.61851907 62 579 120 660
CCCD_CORNER 0.45134783 662 144 726 218
CCCD_CORNER 0.3386028 652 142 707 215
CCCD_CORNER 0.18346852 33 602 95 678
CCCD_CORNER 0.041594636 498 770 565 833
CCCD_CORNER 0.039149474 40 586 103 662
