SYMBOL 0.99753165 918 75 1032 192
CMND_CORNER 0.76495177 611 10 659 51
CMND_CORNER 0.64952 1063 654 1116 698
CMND_CORNER 0.5904255 1051 22 1097 66
CMND_CORNER 0.58321273 617 645 663 700
CMND_CORNER 0.34101272 1053 9 1096 55
CMND_CORNER 0.314649 612 20 661 61
CMND_CORNER 0.23514397 1066 660 1123 711
CCCD_CORNER 0.19557473 617 645 663 700
CMND_CORNER 0.1731254 1055 650 1103 696
CMND_CORNER 0.08145614 607 654 660 717
CMND_CORNER 0.037598938 1047 659 1096 710
CCCD_CORNER 0.031784102 1051 22 1097 66
CMND_CORNER 0.020170527 582 7 636 44
CCCD_CORNER 0.013930515 611 10 659 51
CMND_CORNER 0.01211505 579 645 630 700
SYMBOL 0.011594651 93 75 1142 716
CCCD_CORNER 0.010331555 607 654 660 717
CCCD_CORNER 0.010113165 579 645 630 700
