SYMBOL 0.99518245 741 986 898 1135
CCCD_CORNER 0.9884891 1060 659 1161 739
CCCD_CORNER 0.97766054 66 861 174 948
CCCD_CORNER 0.9642035 267 339 362 428
CCCD_CORNER 0.6714163 859 1157 956 1240
CCCD_CORNER 0.019024745 871 1176 971 1261
CCCD_CORNER 0.016645994 262 361 365 454
CCCD_CORNER 0.013548383 68 842 171 923
CCCD_CORNER 0.012286322 1082 663 1184 742
