CCCD_CORNER 0.9720295 812 835 877 912
SYMBOL 0.8963269 334 647 492 798
CCCD_CORNER 0.76111466 294 813 355 890
CCCD_CORNER 0.66165537 845 32 898 81
CCCD_CORNER 0.51695174 300 21 357 71
CCCD_CORNER 0.048580807 851 18 911 76
CCCD_CORNER 0.045569524 312 26 372 83
SYMBOL 0.03849615 386 658 624 816
CCCD_CORNER 0.02488683 314 16 366 67
CCCD_CORNER 0.022174476 811 820 870 893
SYMBOL 0.012923521 93 98 1144 953
SYMBOL 0.011412033 592 0 1264 769
SYMBOL 0.010583913 177 0 1280 516
SYMBOL 0.0103998855 453 300 1280 960
