CCCD_CORNER 0.96480757 405 42 460 125
SYMBOL 0.83580416 790 162 944 312
CCCD_CORNER 0.74266404 924 69 978 149
CCCD_CORNER 0.6884689 929 895 989 950
CCCD_CORNER 0.6529331 369 871 422 932
CCCD_CORNER 0.38000038 369 885 421 955
CCCD_CORNER 0.28636855 926 882 986 934
CCCD_CORNER 0.051357288 382 887 439 952
CCCD_CORNER 0.041660078 407 66 462 138
CCCD_CORNER 0.017343268 911 881 970 934
SYMBOL 0.010748697 92 102 1139 957
