CCCD_CORNER 0.9464593 1111 614 1196 695
CCCD_CORNER 0.89094687 791 282 871 367
SYMBOL 0.75626177 963 604 1094 736
CCCD_CORNER 0.715907 281 771 372 856
CCCD_CORNER 0.6856288 599 1082 687 1168
CCCD_CORNER 0.023667214 1113 636 1197 715
