SYMBOL 0.9895063 671 301 814 444
CMND_CORNER 0.9860758 577 1012 658 1101
CMND_CORNER 0.98566806 350 46 430 129
CMND_CORNER 0.95245326 55 838 136 938
CMND_CORNER 0.70527506 867 231 946 331
CCCD_CORNER 0.029574467 350 46 430 129
CCCD_CORNER 0.017093807 55 838 136 938
CMND_CORNER 0.01571718 45 856 129 956
CCCD_CORNER 0.013133046 867 231 946 331
CCCD_CORNER 0.010904107 577 1012 658 1101
