CMND_CORNER 0.990346 1016 359 1101 441
CMND_CORNER 0.9803885 838 885 931 968
SYMBOL 0.9798933 304 204 445 345
CMND_CORNER 0.97711927 42 587 129 667
CMND_CORNER 0.5397521 232 72 330 154
CCCD_CORNER 0.04066777 42 587 129 667
CCCD_CORNER 0.023338454 232 72 330 154
CCCD_CORNER 0.019504962 838 885 931 968
CCCD_CORNER 0.018796189 1016 359 1101 441
