SYMBOL 0.99683857 732 604 1110 965
CMND_CORNER 0.9630703 549 252 798 466
CMND_CORNER 0.9276264 112 1562 336 1777
CMND_CORNER 0.7252845 2591 976 2850 1175
CMND_CORNER 0.42054215 2143 2322 2390 2533
CMND_CORNER 0.13970363 2131 2288 2351 2481
