SYMBOL 0.98889834 336 459 695 810
CMND_CORNER 0.88188004 79 1671 254 1812
CMND_CORNER 0.87088406 74 266 275 407
CMND_CORNER 0.58618563 2224 211 2451 357
CMND_CORNER 0.5001471 2214 1674 2434 1806
CMND_CORNER 0.4341482 2207 243 2432 387
CMND_CORNER 0.32409015 2206 1641 2425 1770
CMND_CORNER 0.10291608 67 214 260 367
CMND_CORNER 0.062228803 90 1641 268 1779
CMND_CORNER 0.060256816 13 198 215 361
CMND_CORNER 0.03737952 25 1675 211 1824
CMND_CORNER 0.031735245 12 255 237 399
CCCD_CORNER 0.012791789 2214 1674 2434 1806
CCCD_CORNER 0.011949219 74 266 275 407
CMND_CORNER 0.011297508 2185 219 2395 362
