SYMBOL 0.9893064 2155 1088 2536 1453
CMND_CORNER 0.94569075 170 1656 406 1911
CMND_CORNER 0.9314337 1729 124 1975 363
CMND_CORNER 0.88504434 2731 1090 2983 1352
CMND_CORNER 0.8592764 1181 2668 1419 2919
CMND_CORNER 0.1281636 1167 2721 1419 2992
CMND_CORNER 0.05151029 224 1643 469 1912
CCCD_CORNER 0.014087462 170 1656 406 1911
