SYMBOL 0.99618894 1710 741 2076 1109
CMND_CORNER 0.9582255 2217 542 2423 806
CMND_CORNER 0.919347 901 120 1112 336
CMND_CORNER 0.64266706 1500 2630 1704 2887
CMND_CORNER 0.48970047 142 2150 340 2385
CMND_CORNER 0.06616973 202 2121 385 2350
