SYMBOL 0.9986191 1479 926 1815 1263
CMND_CORNER 0.7648833 1864 57 1988 174
CMND_CORNER 0.6718456 52 55 160 157
CMND_CORNER 0.5090931 1855 1323 1993 1454
CMND_CORNER 0.47015768 44 1321 150 1456
CMND_CORNER 0.31613788 1881 1325 2036 1461
CMND_CORNER 0.26758572 1888 50 2022 166
CMND_CORNER 0.07569506 55 1300 170 1428
CMND_CORNER 0.017512832 1907 7 2043 135
