SYMBOL 0.9983713 928 233 1263 559
CMND_CORNER 0.7175303 53 58 167 177
CMND_CORNER 0.6214321 1335 56 1462 192
CMND_CORNER 0.52606213 45 1885 154 2025
CMND_CORNER 0.38938144 1315 1908 1455 2031
CMND_CORNER 0.36044383 1335 8 1468 164
CMND_CORNER 0.07766338 1297 1876 1428 1998
CMND_CORNER 0.060475264 14 1900 134 2033
CMND_CORNER 0.036616866 1306 63 1432 201
CMND_CORNER 0.022081444 1304 13 1433 171
CMND_CORNER 0.010576864 15 1846 134 2003
