SYMBOL 0.9953082 1119 696 1288 857
CCCD_CORNER 0.9326799 713 1289 826 1404
CCCD_CORNER 0.92966664 1318 683 1432 796
CCCD_CORNER 0.8185472 315 933 416 1032
CCCD_CORNER 0.57405037 932 293 1046 403
CMND_CORNER 0.060083568 932 293 1046 403
CCCD_CORNER 0.044413064 261 907 381 1022
CCCD_CORNER 0.02366595 945 256 1076 386
CMND_CORNER 0.012540384 713 1289 826 1404
