SYMBOL 0.99707484 453 197 542 289
CMND_CORNER 0.9628577 236 26 290 87
CMND_CORNER 0.7743797 61 591 112 657
CMND_CORNER 0.6032036 576 139 626 208
CMND_CORNER 0.5346297 415 671 465 736
CMND_CORNER 0.059950188 586 132 641 202
CMND_CORNER 0.030797563 40 597 94 666
CCCD_CORNER 0.013166788 236 26 290 87
CCCD_CORNER 0.011557147 61 591 112 657
