SYMBOL 0.9976101 537 272 630 361
CMND_CORNER 0.97218925 98 402 160 438
CMND_CORNER 0.9631154 651 15 702 52
CMND_CORNER 0.9081562 61 41 117 79
CMND_CORNER 0.76256067 649 371 704 410
CMND_CORNER 0.039814338 58 24 111 65
CMND_CORNER 0.026271438 662 16 724 51
CMND_CORNER 0.024608899 664 373 725 413
CMND_CORNER 0.023054136 42 36 103 77
CMND_CORNER 0.022800097 42 23 98 61
CMND_CORNER 0.016209874 79 406 143 442
CMND_CORNER 0.015242557 64 56 120 93
CCCD_CORNER 0.010597269 98 402 160 438
