SYMBOL 0.99725634 296 1828 724 2266
CCCD_CORNER 0.98659396 171 2278 324 2477
CCCD_CORNER 0.9556633 211 77 353 267
CCCD_CORNER 0.9512946 1672 85 1827 270
CCCD_CORNER 0.8763891 1696 2292 1842 2488
CCCD_CORNER 0.13330153 1703 2320 1851 2552
CCCD_CORNER 0.04120296 241 87 385 286
CCCD_CORNER 0.0156069845 1681 35 1830 223
CCCD_CORNER 0.014698212 172 2317 319 2540
