CCCD_CORNER 0.9874608 109 1471 350 1692
CCCD_CORNER 0.9325841 2741 856 2954 1078
CCCD_CORNER 0.9085072 541 102 797 315
CCCD_CORNER 0.74653566 2230 2297 2506 2517
SYMBOL 0.60402477 1885 1817 2317 2246
