CCCD_CORNER 0.9949161 1747 2757 2022 3030
CCCD_CORNER 0.9916756 154 1113 409 1366
SYMBOL 0.98190916 1594 2240 2023 2654
CCCD_CORNER 0.97360885 1154 101 1434 333
CCCD_CORNER 0.8409879 2838 1723 3054 1975
