SYMBOL 0.9982798 619 221 794 402
CCCD_CORNER 0.96821254 189 1051 241 1145
CCCD_CORNER 0.95740145 765 1040 825 1141
CCCD_CORNER 0.95246255 785 94 851 201
CCCD_CORNER 0.8191138 161 90 220 202
CCCD_CORNER 0.0127635375 193 1034 243 1119
CCCD_CORNER 0.012398525 172 1052 225 1151
