SYMBOL 0.99866176 223 160 407 338
CCCD_CORNER 0.9706481 1057 715 1143 773
CCCD_CORNER 0.95964134 1041 134 1140 197
CCCD_CORNER 0.94863987 96 109 203 176
CCCD_CORNER 0.84360886 92 737 195 799
CCCD_CORNER 0.015672084 99 724 202 786
CCCD_CORNER 0.014689492 1056 732 1146 791
