CCCD_CORNER 0.99405 771 127 866 246
SYMBOL 0.97356975 684 288 857 472
CCCD_CORNER 0.939137 1075 1031 1163 1136
CCCD_CORNER 0.77279526 176 332 277 457
CCCD_CORNER 0.56203765 538 1245 620 1346
CCCD_CORNER 0.013594306 518 1250 603 1358
