SYMBOL 0.99895465 459 279 597 415
CMND_CORNER 0.98927385 654 1049 760 1143
CMND_CORNER 0.97922635 464 117 565 216
CMND_CORNER 0.94369036 91 482 183 581
CMND_CORNER 0.60454464 1018 678 1117 781
CMND_CORNER 0.010027317 1027 703 1129 809
