SYMBOL 0.98932576 617 389 719 494
CMND_CORNER 0.95742476 745 100 807 146
CMND_CORNER 0.9331648 104 113 173 158
CMND_CORNER 0.85880506 109 535 175 577
CMND_CORNER 0.6603129 745 503 812 549
CMND_CORNER 0.3811854 749 512 816 559
CMND_CORNER 0.1119998 122 529 186 574
CMND_CORNER 0.033348244 748 86 808 133
CMND_CORNER 0.030572133 100 551 164 601
CMND_CORNER 0.027246928 120 116 188 161
CMND_CORNER 0.01748454 33 641 86 696
CMND_CORNER 0.016361395 52 555 121 612
CMND_CORNER 0.011631898 14 684 53 716
CMND_CORNER 0.010219598 93 82 164 134
