SYMBOL 0.9909691 236 225 344 332
CMND_CORNER 0.9600554 151 575 213 619
CMND_CORNER 0.93444145 785 565 856 606
CMND_CORNER 0.8198256 783 140 851 187
CMND_CORNER 0.6863846 145 163 212 206
CMND_CORNER 0.046527185 143 588 203 634
CMND_CORNER 0.028246919 768 563 838 603
CMND_CORNER 0.025128238 791 124 861 172
CMND_CORNER 0.020294102 793 593 866 639
CMND_CORNER 0.013007003 833 138 914 193
CMND_CORNER 0.011593712 831 597 906 643
CMND_CORNER 0.011452326 840 108 916 168
