SYMBOL 0.9984847 177 29 247 102
CCCD_CORNER 0.9372602 8 10 26 34
CCCD_CORNER 0.88050276 237 11 255 35
CCCD_CORNER 0.8035717 11 383 33 407
CCCD_CORNER 0.52269137 245 372 262 408
CCCD_CORNER 0.2883995 241 371 258 405
CCCD_CORNER 0.06498227 248 378 264 417
CCCD_CORNER 0.050893284 242 11 259 36
CCCD_CORNER 0.011937667 16 379 39 406
CCCD_CORNER 0.011927154 16 385 40 414
