CCCD_CORNER 0.87295175 714 647 761 698
CCCD_CORNER 0.6999499 712 18 758 64
CCCD_CORNER 0.664776 300 20 341 66
CCCD_CORNER 0.5376899 286 647 333 702
SYMBOL 0.4829667 605 61 720 176
CCCD_CORNER 0.23737507 716 657 764 717
CCCD_CORNER 0.05622125 276 657 322 716
