SYMBOL 0.9813526 578 313 683 393
CCCD_CORNER 0.6524667 684 383 748 412
CCCD_CORNER 0.5173602 101 378 177 410
CCCD_CORNER 0.48727077 31 22 98 60
CMND_CORNER 0.32860366 101 378 177 410
CCCD_CORNER 0.3228744 684 389 749 422
CMND_CORNER 0.13403602 731 38 790 85
CMND_CORNER 0.09624575 748 47 811 92
CMND_CORNER 0.092104696 108 389 184 421
CCCD_CORNER 0.0577467 700 395 769 421
CCCD_CORNER 0.04956809 731 48 790 94
CCCD_CORNER 0.04391171 108 389 184 421
CMND_CORNER 0.03779955 640 55 696 99
CCCD_CORNER 0.035334848 748 47 811 92
CCCD_CORNER 0.031017276 640 55 696 99
CCCD_CORNER 0.025812415 637 77 690 114
CMND_CORNER 0.02202453 29 29 103 67
CMND_CORNER 0.021410225 683 51 744 95
CMND_CORNER 0.010277135 637 77 690 114
CCCD_CORNER 0.010028884 683 51 744 95
