CCCD_CORNER 0.9721747 2966 440 3215 582
CCCD_CORNER 0.96140635 534 519 810 657
CCCD_CORNER 0.91175884 539 2054 802 2205
SYMBOL 0.62990534 2544 1571 2991 2032
CCCD_CORNER 0.47615764 3021 1968 3296 2135
CCCD_CORNER 0.11585272 3072 2000 3328 2167
SYMBOL 0.01031913 298 300 3629 2981
