CCCD_CORNER 0.9955835 753 2616 1045 2932
SYMBOL 0.99317694 2985 1933 3463 2399
CCCD_CORNER 0.96536994 2397 880 2666 1156
CCCD_CORNER 0.9536292 1835 3760 2129 4054
CCCD_CORNER 0.8762579 3553 1878 3853 2180
