SYMBOL 0.97992456 270 158 344 230
CMND_CORNER 0.8949125 524 504 575 547
CMND_CORNER 0.7874365 128 343 179 384
CMND_CORNER 0.7863863 237 85 287 129
CMND_CORNER 0.6757985 631 242 686 285
CMND_CORNER 0.08957645 235 72 287 120
CMND_CORNER 0.05959781 520 514 576 562
CCCD_CORNER 0.05615505 631 242 686 285
CCCD_CORNER 0.052893497 524 504 575 547
CCCD_CORNER 0.04165783 237 85 287 129
CMND_CORNER 0.016372811 536 503 590 548
CMND_CORNER 0.01519086 532 516 591 568
CCCD_CORNER 0.012667627 128 343 179 384
