SYMBOL 0.9951142 854 435 1022 601
CCCD_CORNER 0.9938233 160 822 266 883
CCCD_CORNER 0.9410026 31 282 100 364
CCCD_CORNER 0.9078509 857 27 975 78
CCCD_CORNER 0.88570523 1041 522 1105 612
CCCD_CORNER 0.012316409 589 121 673 205
