SYMBOL 0.99489707 654 443 751 537
CMND_CORNER 0.9768818 125 355 199 412
CMND_CORNER 0.9671058 677 153 744 214
CMND_CORNER 0.9177504 278 685 346 738
CMND_CORNER 0.804793 791 507 863 565
CMND_CORNER 0.052276187 261 689 330 741
CCCD_CORNER 0.026449867 278 685 346 738
CMND_CORNER 0.01821247 118 336 193 394
CMND_CORNER 0.018080637 814 511 889 575
CMND_CORNER 0.014401045 692 148 766 211
CCCD_CORNER 0.012055614 125 355 199 412
CMND_CORNER 0.010750862 693 110 771 184
