SYMBOL 0.9984843 101 94 217 210
CMND_CORNER 0.9587158 22 24 75 68
CMND_CORNER 0.70099103 24 462 69 492
CMND_CORNER 0.42978153 675 471 717 503
CMND_CORNER 0.4084126 669 36 716 82
CMND_CORNER 0.23328154 658 39 702 83
CMND_CORNER 0.1886549 671 462 713 493
CMND_CORNER 0.10635376 673 25 716 73
CMND_CORNER 0.06722884 661 463 701 492
CMND_CORNER 0.05261956 9 470 57 500
CMND_CORNER 0.027965102 661 28 704 74
CCCD_CORNER 0.0100097805 658 39 702 83
