CMND_CORNER 0.98461413 150 27 231 89
CMND_CORNER 0.96278733 25 438 76 505
CMND_CORNER 0.9068357 769 263 823 329
CMND_CORNER 0.66940767 636 661 724 705
SYMBOL 0.17492056 214 141 327 252
CCCD_CORNER 0.026201136 636 661 724 705
