SYMBOL 0.9990062 298 100 411 215
CMND_CORNER 0.93843096 439 23 482 79
CMND_CORNER 0.64305955 14 23 43 68
CMND_CORNER 0.27555797 435 671 480 717
CMND_CORNER 0.2585271 12 661 41 703
CMND_CORNER 0.21580815 8 672 38 711
CMND_CORNER 0.18407708 426 661 469 703
CMND_CORNER 0.05394787 7 9 35 54
CMND_CORNER 0.030964943 441 0 485 65
CCCD_CORNER 0.016116828 14 23 43 68
