SYMBOL 0.99880934 1440 1007 1996 1559
CMND_CORNER 0.9850012 3571 3600 3953 3903
CMND_CORNER 0.9525551 386 2471 769 2813
CMND_CORNER 0.8175263 4224 1582 4616 1893
CMND_CORNER 0.65834224 1145 510 1517 821
CCCD_CORNER 0.012279421 3571 3600 3953 3903
