SYMBOL 0.9991648 2795 1438 3353 1995
CMND_CORNER 0.9863521 429 3577 749 3961
CMND_CORNER 0.8945219 1548 388 1874 774
CMND_CORNER 0.8640825 2459 4215 2787 4614
CMND_CORNER 0.7484363 3539 1137 3857 1545
CMND_CORNER 0.18865956 1532 290 1864 692
CCCD_CORNER 0.011095958 429 3577 749 3961
CMND_CORNER 0.010621443 255 3603 613 4002
