SYMBOL 0.9685523 1866 763 2409 1310
CMND_CORNER 0.9035535 404 3623 635 3956
CMND_CORNER 0.8984539 2473 327 2689 659
CMND_CORNER 0.73325956 2547 3597 2761 3930
CMND_CORNER 0.53014654 349 297 578 637
CMND_CORNER 0.39813495 332 240 545 564
CMND_CORNER 0.24339123 356 3653 592 3987
CMND_CORNER 0.12292969 2508 3592 2709 3904
CMND_CORNER 0.061543416 2524 300 2767 672
CMND_CORNER 0.04202271 2549 212 2767 593
CMND_CORNER 0.012385476 407 236 608 582
