SYMBOL 0.9931217 653 326 766 442
CMND_CORNER 0.94891965 824 976 906 1060
CCCD_CORNER 0.8011664 367 513 438 583
CMND_CORNER 0.7630006 1155 667 1245 754
CMND_CORNER 0.7543965 657 194 733 271
CMND_CORNER 0.718833 367 513 438 583
CMND_CORNER 0.19493103 664 174 738 258
CCCD_CORNER 0.06935371 824 976 906 1060
SYMBOL 0.01631132 529 443 646 555
CMND_CORNER 0.014656843 814 1004 901 1091
CCCD_CORNER 0.01266319 657 194 733 271
SYMBOL 0.011363241 548 427 655 535
CCCD_CORNER 0.010131186 365 481 438 555
