SYMBOL 0.9951179 1019 689 1186 839
CMND_CORNER 0.97776127 55 563 171 663
CMND_CORNER 0.8321515 351 1100 472 1195
CMND_CORNER 0.6472127 1102 172 1224 270
CMND_CORNER 0.5949818 1242 791 1354 882
CCCD_CORNER 0.012604233 1242 791 1354 882
CMND_CORNER 0.01121599 1226 806 1339 898
