SYMBOL 0.99544805 1060 661 1214 819
CMND_CORNER 0.98257726 899 146 1015 272
CMND_CORNER 0.9333427 621 1324 733 1432
CMND_CORNER 0.9299047 1294 661 1409 777
CMND_CORNER 0.64172703 120 966 235 1079
CCCD_CORNER 0.04952211 1294 661 1409 777
CCCD_CORNER 0.042572998 621 1324 733 1432
CMND_CORNER 0.012197839 896 84 1024 231
CMND_CORNER 0.010345889 124 939 233 1046
