CMND_CORNER 0.9371217 1108 151 1223 220
SYMBOL 0.93380237 837 613 1006 757
CMND_CORNER 0.6803925 41 171 122 244
CMND_CORNER 0.5532139 1035 789 1136 854
CMND_CORNER 0.4314894 88 782 199 846
CMND_CORNER 0.054988757 1020 773 1118 836
CMND_CORNER 0.041551594 1106 173 1222 241
CMND_CORNER 0.025491152 1088 157 1194 225
CCCD_CORNER 0.019599846 88 782 199 846
CMND_CORNER 0.012021875 27 160 103 231
CMND_CORNER 0.010986 1125 105 1233 186
