SYMBOL 0.9974235 650 372 817 531
CMND_CORNER 0.9843961 151 565 272 682
CMND_CORNER 0.9016716 1319 844 1426 964
CMND_CORNER 0.8801244 661 183 776 294
CMND_CORNER 0.5677855 966 1345 1075 1467
CCCD_CORNER 0.0229464 1319 844 1426 964
CCCD_CORNER 0.011784805 151 565 272 682
CMND_CORNER 0.010762821 90 568 228 688
CMND_CORNER 0.0106143905 932 1359 1056 1493
