SYMBOL 0.9925364 483 303 656 455
CMND_CORNER 0.9765078 1291 479 1394 570
CMND_CORNER 0.8696947 1185 1089 1289 1190
CMND_CORNER 0.8374017 407 153 524 246
CMND_CORNER 0.83429205 113 710 233 810
CMND_CORNER 0.032015946 84 724 212 835
CMND_CORNER 0.02785371 1319 475 1434 578
CCCD_CORNER 0.01733611 1291 479 1394 570
CCCD_CORNER 0.015814599 113 710 233 810
CMND_CORNER 0.011184527 118 728 242 834
