CMND_CORNER 0.9308189 3182 773 3499 963
SYMBOL 0.91419566 859 1097 1354 1564
CMND_CORNER 0.7630848 3521 2563 3882 2798
CMND_CORNER 0.6874659 436 838 746 1033
CMND_CORNER 0.4244852 228 2722 543 2935
CMND_CORNER 0.37618062 303 2719 621 2927
CMND_CORNER 0.061382994 511 871 801 1069
CMND_CORNER 0.057667207 3249 763 3596 951
CMND_CORNER 0.039623756 300 2767 599 3002
CMND_CORNER 0.02511111 3267 657 3604 879
