SYMBOL 0.9902593 1730 1233 2203 1716
CMND_CORNER 0.9884114 172 1189 469 1535
CMND_CORNER 0.9771413 2003 735 2289 1050
CMND_CORNER 0.95071864 3034 3270 3292 3609
CMND_CORNER 0.85977507 1423 4212 1733 4604
CMND_CORNER 0.018909365 2965 3261 3221 3607
CCCD_CORNER 0.014439292 3034 3270 3292 3609
CCCD_CORNER 0.011672809 172 1189 469 1535
