SYMBOL 0.9977563 1360 1396 1872 1862
CMND_CORNER 0.94490707 266 2650 637 2961
CMND_CORNER 0.9391418 3727 1811 4050 2083
CMND_CORNER 0.9164705 3423 3666 3799 3976
CMND_CORNER 0.4555269 1110 960 1456 1228
CMND_CORNER 0.059883464 3439 3607 3780 3902
CMND_CORNER 0.035698768 359 2665 707 2971
CCCD_CORNER 0.033887103 3727 1811 4050 2083
CCCD_CORNER 0.010036755 3423 3666 3799 3976
