SYMBOL 0.9974432 1664 888 1910 1134
CMND_CORNER 0.98148835 610 1555 781 1694
CMND_CORNER 0.9490024 1691 151 1870 291
CMND_CORNER 0.8524547 294 651 466 791
CMND_CORNER 0.64095855 2017 1055 2202 1209
CMND_CORNER 0.06682427 1700 98 1883 255
