SYMBOL 0.9977895 1446 782 1696 1028
CMND_CORNER 0.92435503 277 105 426 200
CMND_CORNER 0.7341948 1776 105 1931 204
CMND_CORNER 0.37797618 265 1054 416 1145
CMND_CORNER 0.3016102 1764 1068 1930 1144
CMND_CORNER 0.19488381 1742 1049 1894 1120
CMND_CORNER 0.17846382 1754 114 1894 215
CMND_CORNER 0.05399419 237 1046 392 1124
CMND_CORNER 0.048878238 1794 58 1957 164
CMND_CORNER 0.037580416 1744 138 1879 239
CMND_CORNER 0.03697635 230 95 399 197
CMND_CORNER 0.03428647 1775 140 1927 232
CMND_CORNER 0.02006475 288 142 434 236
CMND_CORNER 0.016907495 270 61 421 162
CMND_CORNER 0.015050502 226 58 388 162
