SYMBOL 0.9982926 347 124 595 368
CMND_CORNER 0.9372868 1615 951 1781 1050
CMND_CORNER 0.6904202 121 941 271 1049
CMND_CORNER 0.44060472 1625 0 1788 94
CMND_CORNER 0.42730007 116 10 275 84
CMND_CORNER 0.30544558 154 935 293 1036
CMND_CORNER 0.24478638 1625 30 1779 108
CMND_CORNER 0.19274817 156 32 295 101
CMND_CORNER 0.05329762 1644 955 1827 1057
CMND_CORNER 0.05026125 93 985 249 1100
CMND_CORNER 0.03298467 128 919 277 1016
CMND_CORNER 0.02754994 1614 985 1783 1097
CMND_CORNER 0.021025589 1658 991 1822 1101
CCCD_CORNER 0.019077865 1625 0 1788 94
CCCD_CORNER 0.0124792 1625 30 1779 108
