SYMBOL 0.9969363 1016 605 1264 852
CCCD_CORNER 0.8413403 1277 24 1360 73
CCCD_CORNER 0.5937133 39 19 106 64
CCCD_CORNER 0.53809565 37 804 114 856
CCCD_CORNER 0.44391173 1274 826 1367 873
CCCD_CORNER 0.23666172 1273 808 1365 860
CCCD_CORNER 0.16507183 39 26 114 82
CCCD_CORNER 0.085868336 28 815 108 868
CCCD_CORNER 0.038631406 1299 15 1385 62
