SYMBOL 0.9977574 555 208 758 416
CMND_CORNER 0.97018 30 54 96 165
CMND_CORNER 0.89978963 37 1224 109 1308
CMND_CORNER 0.38445365 786 39 834 155
CMND_CORNER 0.37003404 773 1228 818 1307
CMND_CORNER 0.31216648 774 46 821 159
CMND_CORNER 0.26808026 785 1244 837 1337
CMND_CORNER 0.013518902 799 2 838 129
CMND_CORNER 0.011112248 56 1220 127 1308
