SYMBOL 0.9957991 292 89 511 308
CCCD_CORNER 0.85963017 205 29 345 97
CCCD_CORNER 0.6562481 1103 1070 1248 1133
CCCD_CORNER 0.5204151 38 682 124 794
CCCD_CORNER 0.1760608 1323 375 1409 495
CMND_CORNER 0.07051875 1323 375 1409 495
