SYMBOL 0.9948679 142 27 383 277
CCCD_CORNER 0.41581118 1305 804 1383 858
CCCD_CORNER 0.38967374 1310 5 1394 64
CCCD_CORNER 0.36895108 42 808 126 857
CCCD_CORNER 0.30812755 1283 29 1366 81
CCCD_CORNER 0.29997966 43 818 128 871
CCCD_CORNER 0.29060328 1312 813 1393 872
CCCD_CORNER 0.25798798 38 8 131 60
CCCD_CORNER 0.1683036 7 2 113 56
CCCD_CORNER 0.09054726 1290 10 1371 68
CCCD_CORNER 0.04370148 39 24 136 85
CCCD_CORNER 0.026575573 1291 809 1369 866
CCCD_CORNER 0.016871983 12 20 111 81
