SYMBOL 0.9802398 1865 405 2216 745
CCCD_CORNER 0.96509004 1022 221 1147 391
CCCD_CORNER 0.87253344 1008 2073 1129 2255
CCCD_CORNER 0.7058194 2197 2063 2327 2265
CCCD_CORNER 0.32939824 2174 182 2307 378
CCCD_CORNER 0.087089986 2189 141 2329 353
CCCD_CORNER 0.038313948 964 2071 1094 2259
CCCD_CORNER 0.030951027 965 228 1096 390
CCCD_CORNER 0.026502177 2162 2103 2284 2295
CCCD_CORNER 0.014209995 952 2104 1074 2293
