SYMBOL 0.9947594 424 333 542 449
CMND_CORNER 0.964389 605 983 687 1063
CMND_CORNER 0.9469835 118 508 201 593
CMND_CORNER 0.940506 921 669 1001 752
CMND_CORNER 0.62957895 427 198 512 282
CCCD_CORNER 0.5093678 427 198 512 282
CCCD_CORNER 0.20600708 921 669 1001 752
CCCD_CORNER 0.07691488 118 508 201 593
CCCD_CORNER 0.016533185 605 983 687 1063
