CCCD_CORNER 0.989361 1410 3317 1694 3595
SYMBOL 0.98360646 2581 1648 3000 2080
CCCD_CORNER 0.97169805 3088 1640 3354 1903
CCCD_CORNER 0.96833134 2044 538 2336 824
CCCD_CORNER 0.94753265 320 2268 590 2549
