CMND_CORNER 0.958229 586 838 652 919
SYMBOL 0.88379914 654 254 770 378
CMND_CORNER 0.6966757 169 686 234 777
CMND_CORNER 0.68060994 377 42 452 136
CCCD_CORNER 0.43706337 808 191 874 281
CMND_CORNER 0.07995167 378 70 448 149
CMND_CORNER 0.07522191 808 191 874 281
CMND_CORNER 0.05070129 396 74 461 146
CCCD_CORNER 0.047419194 586 838 652 919
CMND_CORNER 0.019692851 589 862 656 945
CMND_CORNER 0.018028747 136 684 213 777
CMND_CORNER 0.015273014 565 835 632 912
CCCD_CORNER 0.015059813 169 686 234 777
CCCD_CORNER 0.011068267 377 42 452 136
