CCCD_CORNER 0.99517316 900 1961 1068 2139
CCCD_CORNER 0.9900293 1956 3030 2128 3217
CCCD_CORNER 0.98763114 2606 2301 2784 2486
SYMBOL 0.9765099 1591 1517 1858 1804
CCCD_CORNER 0.8927012 1608 1323 1764 1491
SYMBOL 0.30990216 1265 1813 1575 2121
SYMBOL 0.023432076 1497 1597 1777 1879
