SYMBOL 0.9971132 2288 1943 2643 2292
CCCD_CORNER 0.9935011 528 1644 744 1821
CCCD_CORNER 0.9766863 2279 1060 2499 1225
CCCD_CORNER 0.960785 2700 2123 2933 2311
CCCD_CORNER 0.7812581 932 2774 1153 2958
CCCD_CORNER 0.04851663 2230 1066 2439 1223
CCCD_CORNER 0.011659652 2764 2098 3029 2302
CCCD_CORNER 0.011371804 2692 2191 2925 2367
