SYMBOL 0.9948376 2485 1130 2885 1507
CMND_CORNER 0.9891304 2511 87 2785 280
CMND_CORNER 0.9877709 3068 1395 3341 1619
CMND_CORNER 0.7608277 498 858 752 1068
CMND_CORNER 0.6124102 998 2100 1237 2301
CMND_CORNER 0.074225724 957 2167 1202 2381
CCCD_CORNER 0.04823259 498 858 752 1068
CMND_CORNER 0.03785255 376 826 662 1060
CMND_CORNER 0.013277103 2517 18 2797 233
CMND_CORNER 0.011032712 479 2514 742 2635
CMND_CORNER 0.010478886 880 2332 1131 2553
CMND_CORNER 0.010259108 3083 1444 3357 1684
