SYMBOL 0.994875 410 325 537 449
CCCD_CORNER 0.9892982 874 687 954 766
CCCD_CORNER 0.95057666 408 227 486 304
CCCD_CORNER 0.92398036 107 514 186 592
CCCD_CORNER 0.782034 576 991 662 1078
CMND_CORNER 0.0131118465 874 687 954 766
CMND_CORNER 0.011285227 408 227 486 304
