SYMBOL 0.99758816 736 412 862 537
CCCD_CORNER 0.99262416 421 870 502 951
CCCD_CORNER 0.892732 882 406 959 481
CCCD_CORNER 0.84176254 593 110 670 185
CCCD_CORNER 0.63232034 110 577 191 660
CMND_CORNER 0.0138510335 593 110 670 185
