SYMBOL 0.9931218 718 738 896 913
CCCD_CORNER 0.9166501 248 605 314 723
CCCD_CORNER 0.91091937 863 1553 921 1660
CCCD_CORNER 0.87626165 882 610 950 717
CCCD_CORNER 0.47359392 262 1569 325 1680
CCCD_CORNER 0.19108 274 1562 340 1661
SYMBOL 0.012425395 84 210 1031 2033
