SYMBOL 0.9963206 969 521 1142 702
CCCD_CORNER 0.9917583 1567 1318 1689 1402
CCCD_CORNER 0.975528 888 400 999 502
CCCD_CORNER 0.8704055 651 992 775 1095
CCCD_CORNER 0.85006344 1761 737 1877 834
CCCD_CORNER 0.04239468 680 998 800 1098
CCCD_CORNER 0.01195877 886 429 996 533
SYMBOL 0.01134102 229 0 2312 949
