SYMBOL 0.98948365 1248 1278 1428 1457
CMND_CORNER 0.97414875 263 1103 386 1205
CMND_CORNER 0.95485854 1278 716 1417 823
CMND_CORNER 0.9425396 482 1745 610 1841
CMND_CORNER 0.91050684 1505 1386 1632 1486
CCCD_CORNER 0.05857272 1278 716 1417 823
CCCD_CORNER 0.03861756 263 1103 386 1205
CCCD_CORNER 0.020145163 482 1745 610 1841
CMND_CORNER 0.015483762 1532 1383 1669 1499
CMND_CORNER 0.0132915415 1541 1440 1671 1557
CMND_CORNER 0.013040813 1505 1433 1628 1531
CMND_CORNER 0.012706014 473 1798 601 1905
CMND_CORNER 0.012135544 1276 662 1412 782
