SYMBOL 0.99546236 1531 1043 1718 1220
CMND_CORNER 0.9587353 1803 1052 1931 1176
CMND_CORNER 0.94520974 555 1306 687 1433
CMND_CORNER 0.8842619 1025 1784 1153 1911
CMND_CORNER 0.59083253 1317 515 1459 649
CMND_CORNER 0.084671855 516 1308 649 1432
CCCD_CORNER 0.047586907 1803 1052 1931 1176
CMND_CORNER 0.041633338 997 1788 1123 1903
CCCD_CORNER 0.036852553 1025 1784 1153 1911
CCCD_CORNER 0.032707136 555 1306 687 1433
CCCD_CORNER 0.026402287 2039 1523 2166 1663
CCCD_CORNER 0.014129626 1320 539 1461 668
CMND_CORNER 0.011283402 2118 1406 2217 1586
CMND_CORNER 0.011000091 2039 1523 2166 1663
CCCD_CORNER 0.010705312 2040 1444 2166 1598
