SYMBOL 0.9976682 1042 537 1226 728
CMND_CORNER 0.9684713 1056 332 1180 461
CMND_CORNER 0.9584388 1798 1099 1923 1236
CMND_CORNER 0.9033854 1300 1584 1426 1709
CMND_CORNER 0.5741444 543 810 672 942
CMND_CORNER 0.5284955 514 817 646 949
CMND_CORNER 0.08812988 1293 1609 1430 1741
CCCD_CORNER 0.030740842 1798 1099 1923 1236
CCCD_CORNER 0.030737042 1407 52 1579 136
CMND_CORNER 0.019220483 1407 52 1579 136
CCCD_CORNER 0.016552951 1300 1584 1426 1709
CCCD_CORNER 0.0115536135 1056 332 1180 461
CCCD_CORNER 0.010229914 543 810 672 942
