SYMBOL 0.9916991 1279 355 1461 530
CMND_CORNER 0.9727657 728 370 838 506
CMND_CORNER 0.96795523 1106 1395 1206 1518
CMND_CORNER 0.93494207 1398 156 1497 278
CMND_CORNER 0.8946399 1751 1171 1846 1291
CCCD_CORNER 0.038802173 1751 1171 1846 1291
CMND_CORNER 0.027865302 1786 1178 1894 1307
CMND_CORNER 0.025267065 1821 43 1997 116
CCCD_CORNER 0.02393934 1931 164 2085 275
CCCD_CORNER 0.022689989 1912 73 2079 196
CCCD_CORNER 0.022216236 1106 1395 1206 1518
CCCD_CORNER 0.020892166 1821 43 1997 116
CCCD_CORNER 0.017829832 1398 156 1497 278
CCCD_CORNER 0.013306022 728 370 838 506
CCCD_CORNER 0.011599664 1854 72 2012 182
