SYMBOL 0.9955147 1509 588 1711 773
CMND_CORNER 0.96713465 1378 1502 1477 1624
CMND_CORNER 0.936459 1106 235 1214 360
CMND_CORNER 0.83523655 744 1263 840 1386
CMND_CORNER 0.7653239 1751 486 1855 605
CMND_CORNER 0.067784704 1087 210 1207 337
CMND_CORNER 0.037798543 1788 485 1891 609
CCCD_CORNER 0.031732857 1378 1502 1477 1624
CMND_CORNER 0.022059143 1367 1541 1479 1671
CCCD_CORNER 0.020368597 744 1263 840 1386
CCCD_CORNER 0.0174676 1751 486 1855 605
CCCD_CORNER 0.015178219 2173 814 2284 950
CMND_CORNER 0.013918953 2173 814 2284 950
CMND_CORNER 0.012062436 2185 729 2284 867
